{
  "pageProps": {
    "serversideData": {
      "page": {
        "pageNumber": 9,
        "pageSize": 10,
        "numberOfElements": 10,
        "totalElements": 2404,
        "totalPages": 241,
        "firstPage": false,
        "lastPage": false
      },
      "sort": { "clauses": [] },
      "astronomicalObjects": [
        {
          "uid": "ASMA0000012190",
          "name": "Alpha Omicron VII",
          "astronomicalObjectType": "GAS_GIANT_PLANET",
          "location": {
            "uid": "ASMA0000012189",
            "name": "Alpha Omicron system"
          }
        },
        {
          "uid": "ASMA0000053490",
          "name": "Alpha Omicron asteroid belt",
          "astronomicalObjectType": "ASTEROID_BELT",
          "location": {
            "uid": "ASMA0000012189",
            "name": "Alpha Omicron system"
          }
        },
        {
          "uid": "ASMA0000012189",
          "name": "Alpha Omicron system",
          "astronomicalObjectType": "STAR_SYSTEM",
          "location": { "uid": "ASMA0000025892", "name": "Alpha Quadrant" }
        },
        {
          "uid": "ASMA0000015429",
          "name": "Alpha Onias III",
          "astronomicalObjectType": "M_CLASS_PLANET",
          "location": { "uid": "ASMA0000229677", "name": "Alpha Onias system" }
        },
        {
          "uid": "ASMA0000229677",
          "name": "Alpha Onias system",
          "astronomicalObjectType": "STAR_SYSTEM",
          "location": { "uid": "ASMA0000016427", "name": "Onias sector" }
        },
        {
          "uid": "ASMA0000025892",
          "name": "Alpha Quadrant",
          "astronomicalObjectType": "QUADRANT",
          "location": { "uid": "ASMA0000002775", "name": "Milky Way Galaxy" }
        },
        {
          "uid": "ASMA0000064902",
          "name": "Alpha Roller II",
          "astronomicalObjectType": "PLANET",
          "location": null
        },
        {
          "uid": "ASMA0000064907",
          "name": "Alpha Rossi",
          "astronomicalObjectType": "PLANET",
          "location": null
        },
        {
          "uid": "ASMA0000193570",
          "name": "Alpha VII",
          "astronomicalObjectType": "PLANET",
          "location": { "uid": "ASMA0000025892", "name": "Alpha Quadrant" }
        },
        {
          "uid": "ASMA0000064906",
          "name": "Alpha Zayra II",
          "astronomicalObjectType": "PLANET",
          "location": null
        }
      ]
    }
  },
  "__N_SSG": true
}
