{
  "pageProps": {
    "serversideData": {
      "page": {
        "pageNumber": 99,
        "pageSize": 10,
        "numberOfElements": 10,
        "totalElements": 2404,
        "totalPages": 241,
        "firstPage": false,
        "lastPage": false
      },
      "sort": { "clauses": [] },
      "astronomicalObjects": [
        {
          "uid": "ASMA0000190118",
          "name": "Ilidaria system",
          "astronomicalObjectType": "STAR_SYSTEM",
          "location": { "uid": "ASMA0000000662", "name": "Delta Quadrant" }
        },
        {
          "uid": "ASMA0000049323",
          "name": "Ilyra VI",
          "astronomicalObjectType": "PLANET",
          "location": { "uid": "ASMA0000025892", "name": "Alpha Quadrant" }
        },
        {
          "uid": "ASMA0000012984",
          "name": "Inavar Prime",
          "astronomicalObjectType": "PLANET",
          "location": { "uid": "ASMA0000000662", "name": "Delta Quadrant" }
        },
        {
          "uid": "ASMA0000008364",
          "name": "Indri VIII",
          "astronomicalObjectType": "L_CLASS_PLANET",
          "location": { "uid": "ASMA0000045581", "name": "Indri system" }
        },
        {
          "uid": "ASMA0000045581",
          "name": "Indri system",
          "astronomicalObjectType": "STAR_SYSTEM",
          "location": { "uid": "ASMA0000002015", "name": "Beta Quadrant" }
        },
        {
          "uid": "ASMA0000010785",
          "name": "Inferna Prime",
          "astronomicalObjectType": "PLANET",
          "location": { "uid": "ASMA0000025892", "name": "Alpha Quadrant" }
        },
        {
          "uid": "ASMA0000011010",
          "name": "Ingraham B",
          "astronomicalObjectType": "PLANET",
          "location": { "uid": "ASMA0000002015", "name": "Beta Quadrant" }
        },
        {
          "uid": "ASMA0000081278",
          "name": "Interfold layer",
          "astronomicalObjectType": "REGION",
          "location": null
        },
        {
          "uid": "ASMA0000203147",
          "name": "Intergalactic void",
          "astronomicalObjectType": "REGION",
          "location": { "uid": "ASMA0000002775", "name": "Milky Way Galaxy" }
        },
        {
          "uid": "ASMA0000008743",
          "name": "Internment Camp 371",
          "astronomicalObjectType": "ASTEROID",
          "location": { "uid": "ASMA0000002016", "name": "Gamma Quadrant" }
        }
      ]
    }
  },
  "__N_SSG": true
}
