{
  "pageProps": {
    "serversideData": {
      "page": {
        "pageNumber": 11,
        "pageSize": 10,
        "numberOfElements": 10,
        "totalElements": 2404,
        "totalPages": 241,
        "firstPage": false,
        "lastPage": false
      },
      "sort": { "clauses": [] },
      "astronomicalObjects": [
        {
          "uid": "ASMA0000229744",
          "name": "Amar system",
          "astronomicalObjectType": "STAR_SYSTEM",
          "location": { "uid": "ASMA0000025892", "name": "Alpha Quadrant" }
        },
        {
          "uid": "ASMA0000004100",
          "name": "Amargosa",
          "astronomicalObjectType": "STAR",
          "location": { "uid": "ASMA0000215345", "name": "Amargosa system" }
        },
        {
          "uid": "ASMA0000008469",
          "name": "Amargosa Diaspora",
          "astronomicalObjectType": "CLUSTER",
          "location": null
        },
        {
          "uid": "ASMA0000215345",
          "name": "Amargosa system",
          "astronomicalObjectType": "STAR_SYSTEM",
          "location": { "uid": "ASMA0000002015", "name": "Beta Quadrant" }
        },
        {
          "uid": "ASMA0000019525",
          "name": "Amerind",
          "astronomicalObjectType": "PLANET",
          "location": { "uid": "ASMA0000025892", "name": "Alpha Quadrant" }
        },
        {
          "uid": "ASMA0000007831",
          "name": "Amleth Prime",
          "astronomicalObjectType": "PLANET",
          "location": { "uid": "ASMA0000010078", "name": "Amleth system" }
        },
        {
          "uid": "ASMA0000010078",
          "name": "Amleth system",
          "astronomicalObjectType": "STAR_SYSTEM",
          "location": { "uid": "ASMA0000025892", "name": "Alpha Quadrant" }
        },
        {
          "uid": "ASMA0000262643",
          "name": "Amma",
          "astronomicalObjectType": "MOON",
          "location": null
        },
        {
          "uid": "ASMA0000067269",
          "name": "Amphion",
          "astronomicalObjectType": "STAR",
          "location": null
        },
        {
          "uid": "ASMA0000012744",
          "name": "Andevian II",
          "astronomicalObjectType": "PLANET",
          "location": { "uid": "ASMA0000025892", "name": "Alpha Quadrant" }
        }
      ]
    }
  },
  "__N_SSG": true
}
