{
  "pageProps": {
    "serversideData": {
      "page": {
        "pageNumber": 13,
        "pageSize": 10,
        "numberOfElements": 10,
        "totalElements": 2404,
        "totalPages": 241,
        "firstPage": false,
        "lastPage": false
      },
      "sort": { "clauses": [] },
      "astronomicalObjects": [
        {
          "uid": "ASMA0000001122",
          "name": "Angel I",
          "astronomicalObjectType": "M_CLASS_PLANET",
          "location": { "uid": "ASMA0000281801", "name": "Angel system" }
        },
        {
          "uid": "ASMA0000281801",
          "name": "Angel system",
          "astronomicalObjectType": "STAR_SYSTEM",
          "location": { "uid": "ASMA0000025892", "name": "Alpha Quadrant" }
        },
        {
          "uid": "ASMA0000014019",
          "name": "Angosia III",
          "astronomicalObjectType": "PLANET",
          "location": { "uid": "ASMA0000025892", "name": "Alpha Quadrant" }
        },
        {
          "uid": "ASMA0000222586",
          "name": "Ankari homeworld",
          "astronomicalObjectType": "PLANET",
          "location": { "uid": "ASMA0000000662", "name": "Delta Quadrant" }
        },
        {
          "uid": "ASMA0000003168",
          "name": "Antares",
          "astronomicalObjectType": "STAR",
          "location": { "uid": "ASMA0000025892", "name": "Alpha Quadrant" }
        },
        {
          "uid": "ASMA0000003228",
          "name": "Antares sector",
          "astronomicalObjectType": "SECTOR",
          "location": { "uid": "ASMA0000002015", "name": "Beta Quadrant" }
        },
        {
          "uid": "ASMA0000074445",
          "name": "Antede III",
          "astronomicalObjectType": "PLANET",
          "location": { "uid": "ASMA0000025892", "name": "Alpha Quadrant" }
        },
        {
          "uid": "ASMA0000000809",
          "name": "Antica",
          "astronomicalObjectType": "PLANET",
          "location": { "uid": "ASMA0000001037", "name": "Beta Renner system" }
        },
        {
          "uid": "ASMA0000166053",
          "name": "Antica IV",
          "astronomicalObjectType": "PLANET",
          "location": { "uid": "ASMA0000025892", "name": "Alpha Quadrant" }
        },
        {
          "uid": "ASMA0000166073",
          "name": "Antide Prime",
          "astronomicalObjectType": "PLANET",
          "location": { "uid": "ASMA0000025892", "name": "Alpha Quadrant" }
        }
      ]
    }
  },
  "__N_SSG": true
}
