{
  "pageProps": {
    "serversideData": {
      "page": {
        "pageNumber": 14,
        "pageSize": 10,
        "numberOfElements": 10,
        "totalElements": 2404,
        "totalPages": 241,
        "firstPage": false,
        "lastPage": false
      },
      "sort": { "clauses": [] },
      "astronomicalObjects": [
        {
          "uid": "ASMA0000017756",
          "name": "Antos IV",
          "astronomicalObjectType": "PLANET",
          "location": { "uid": "ASMA0000025892", "name": "Alpha Quadrant" }
        },
        {
          "uid": "ASMA0000270315",
          "name": "Apergos",
          "astronomicalObjectType": "PLANET",
          "location": { "uid": "ASMA0000025892", "name": "Alpha Quadrant" }
        },
        {
          "uid": "ASMA0000120329",
          "name": "Apperson's Asteroid",
          "astronomicalObjectType": "ASTEROID",
          "location": { "uid": "ASMA0000002015", "name": "Beta Quadrant" }
        },
        {
          "uid": "ASMA0000284558",
          "name": "Aquathawn homeworld",
          "astronomicalObjectType": "PLANET",
          "location": null
        },
        {
          "uid": "ASMA0000028896",
          "name": "Arachna",
          "astronomicalObjectType": "STAR",
          "location": null
        },
        {
          "uid": "ASMA0000041509",
          "name": "Arachnid Nebula",
          "astronomicalObjectType": "NEBULA",
          "location": { "uid": "ASMA0000025892", "name": "Alpha Quadrant" }
        },
        {
          "uid": "ASMA0000067710",
          "name": "Arakis Prime",
          "astronomicalObjectType": "PLANET",
          "location": { "uid": "ASMA0000000662", "name": "Delta Quadrant" }
        },
        {
          "uid": "ASMA0000004355",
          "name": "Arakon system",
          "astronomicalObjectType": "STAR_SYSTEM",
          "location": { "uid": "ASMA0000001993", "name": "Delphic Expanse" }
        },
        {
          "uid": "ASMA0000288978",
          "name": "Arbazan",
          "astronomicalObjectType": "STAR_SYSTEM",
          "location": { "uid": "ASMA0000025892", "name": "Alpha Quadrant" }
        },
        {
          "uid": "ASMA0000049326",
          "name": "Arcadian system",
          "astronomicalObjectType": "STAR_SYSTEM",
          "location": { "uid": "ASMA0000025892", "name": "Alpha Quadrant" }
        }
      ]
    }
  },
  "__N_SSG": true
}
