{
  "pageProps": {
    "serversideData": {
      "page": {
        "pageNumber": 15,
        "pageSize": 10,
        "numberOfElements": 10,
        "totalElements": 2404,
        "totalPages": 241,
        "firstPage": false,
        "lastPage": false
      },
      "sort": { "clauses": [] },
      "astronomicalObjects": [
        {
          "uid": "ASMA0000165524",
          "name": "Archanis",
          "astronomicalObjectType": "STAR_SYSTEM",
          "location": { "uid": "ASMA0000262940", "name": "Klingon Zone" }
        },
        {
          "uid": "ASMA0000023228",
          "name": "Archanis IV",
          "astronomicalObjectType": "PLANET",
          "location": { "uid": "ASMA0000165524", "name": "Archanis" }
        },
        {
          "uid": "ASMA0000010726",
          "name": "Archanis sector",
          "astronomicalObjectType": "SECTOR",
          "location": { "uid": "ASMA0000002015", "name": "Beta Quadrant" }
        },
        {
          "uid": "ASMA0000011942",
          "name": "Archer IV",
          "astronomicalObjectType": "M_CLASS_PLANET",
          "location": { "uid": "ASMA0000032818", "name": "61 Ursae Majoris" }
        },
        {
          "uid": "ASMA0000018128",
          "name": "Archer's Comet",
          "astronomicalObjectType": "COMET",
          "location": { "uid": "ASMA0000002015", "name": "Beta Quadrant" }
        },
        {
          "uid": "ASMA0000024759",
          "name": "Archer's Planet",
          "astronomicalObjectType": "PLANET",
          "location": {
            "uid": "ASMA0000024817",
            "name": "Gamma Trianguli sector"
          }
        },
        {
          "uid": "ASMA0000212578",
          "name": "Arcturus",
          "astronomicalObjectType": "STAR_SYSTEM",
          "location": { "uid": "ASMA0000025892", "name": "Alpha Quadrant" }
        },
        {
          "uid": "ASMA0000012543",
          "name": "Ardana",
          "astronomicalObjectType": "PLANET",
          "location": { "uid": "ASMA0000229745", "name": "Ardana system" }
        },
        {
          "uid": "ASMA0000229745",
          "name": "Ardana system",
          "astronomicalObjectType": "STAR_SYSTEM",
          "location": { "uid": "ASMA0000002015", "name": "Beta Quadrant" }
        },
        {
          "uid": "ASMA0000283811",
          "name": "Areolus",
          "astronomicalObjectType": "PLANET",
          "location": { "uid": "ASMA0000025892", "name": "Alpha Quadrant" }
        }
      ]
    }
  },
  "__N_SSG": true
}
