{
  "pageProps": {
    "serversideData": {
      "page": {
        "pageNumber": 16,
        "pageSize": 10,
        "numberOfElements": 10,
        "totalElements": 2404,
        "totalPages": 241,
        "firstPage": false,
        "lastPage": false
      },
      "sort": { "clauses": [] },
      "astronomicalObjects": [
        {
          "uid": "ASMA0000050453",
          "name": "Argaya system",
          "astronomicalObjectType": "STAR_SYSTEM",
          "location": { "uid": "ASMA0000001090", "name": "Bajor sector" }
        },
        {
          "uid": "ASMA0000264635",
          "name": "Argelius",
          "astronomicalObjectType": "STAR_SYSTEM",
          "location": { "uid": "ASMA0000002015", "name": "Beta Quadrant" }
        },
        {
          "uid": "ASMA0000004884",
          "name": "Argelius II",
          "astronomicalObjectType": "PLANET",
          "location": { "uid": "ASMA0000264635", "name": "Argelius" }
        },
        {
          "uid": "ASMA0000288260",
          "name": "Argelius IV",
          "astronomicalObjectType": "PLANET",
          "location": { "uid": "ASMA0000264635", "name": "Argelius" }
        },
        {
          "uid": "ASMA0000218503",
          "name": "Argelius sector",
          "astronomicalObjectType": "SECTOR",
          "location": null
        },
        {
          "uid": "ASMA0000262903",
          "name": "Argeth",
          "astronomicalObjectType": "M_CLASS_PLANET",
          "location": { "uid": "ASMA0000025892", "name": "Alpha Quadrant" }
        },
        {
          "uid": "ASMA0000013218",
          "name": "Argo",
          "astronomicalObjectType": "PLANET",
          "location": { "uid": "ASMA0000025892", "name": "Alpha Quadrant" }
        },
        {
          "uid": "ASMA0000007340",
          "name": "Argolis Cluster",
          "astronomicalObjectType": "CLUSTER",
          "location": { "uid": "ASMA0000025892", "name": "Alpha Quadrant" }
        },
        {
          "uid": "ASMA0000071728",
          "name": "Argona II",
          "astronomicalObjectType": "PLANET",
          "location": { "uid": "ASMA0000025892", "name": "Alpha Quadrant" }
        },
        {
          "uid": "ASMA0000053951",
          "name": "Argos system",
          "astronomicalObjectType": "STAR_SYSTEM",
          "location": { "uid": "ASMA0000025892", "name": "Alpha Quadrant" }
        }
      ]
    }
  },
  "__N_SSG": true
}
