{
  "pageProps": {
    "serversideData": {
      "page": {
        "pageNumber": 17,
        "pageSize": 10,
        "numberOfElements": 10,
        "totalElements": 2404,
        "totalPages": 241,
        "firstPage": false,
        "lastPage": false
      },
      "sort": { "clauses": [] },
      "astronomicalObjects": [
        {
          "uid": "ASMA0000018718",
          "name": "Argosian sector",
          "astronomicalObjectType": "SECTOR",
          "location": { "uid": "ASMA0000025892", "name": "Alpha Quadrant" }
        },
        {
          "uid": "ASMA0000041004",
          "name": "Argratha",
          "astronomicalObjectType": "PLANET",
          "location": { "uid": "ASMA0000002016", "name": "Gamma Quadrant" }
        },
        {
          "uid": "ASMA0000016599",
          "name": "Argus X",
          "astronomicalObjectType": "PLANET",
          "location": { "uid": "ASMA0000262820", "name": "Argus system" }
        },
        {
          "uid": "ASMA0000049459",
          "name": "Argus sector",
          "astronomicalObjectType": "SECTOR",
          "location": null
        },
        {
          "uid": "ASMA0000262820",
          "name": "Argus system",
          "astronomicalObjectType": "STAR_SYSTEM",
          "location": { "uid": "ASMA0000025892", "name": "Alpha Quadrant" }
        },
        {
          "uid": "ASMA0000011021",
          "name": "Ariannus",
          "astronomicalObjectType": "PLANET",
          "location": { "uid": "ASMA0000025892", "name": "Alpha Quadrant" }
        },
        {
          "uid": "ASMA0000166382",
          "name": "Aries",
          "astronomicalObjectType": "CONSTELLATION",
          "location": null
        },
        {
          "uid": "ASMA0000014902",
          "name": "Arkaria",
          "astronomicalObjectType": "PLANET",
          "location": { "uid": "ASMA0000025892", "name": "Alpha Quadrant" }
        },
        {
          "uid": "ASMA0000013240",
          "name": "Arlington IV",
          "astronomicalObjectType": "PLANET",
          "location": { "uid": "ASMA0000025892", "name": "Alpha Quadrant" }
        },
        {
          "uid": "ASMA0000070998",
          "name": "Arloff IX",
          "astronomicalObjectType": "PLANET",
          "location": { "uid": "ASMA0000025892", "name": "Alpha Quadrant" }
        }
      ]
    }
  },
  "__N_SSG": true
}
