{
  "pageProps": {
    "serversideData": {
      "page": {
        "pageNumber": 18,
        "pageSize": 10,
        "numberOfElements": 10,
        "totalElements": 2404,
        "totalPages": 241,
        "firstPage": false,
        "lastPage": false
      },
      "sort": { "clauses": [] },
      "astronomicalObjects": [
        {
          "uid": "ASMA0000012759",
          "name": "Armus IX",
          "astronomicalObjectType": "PLANET",
          "location": { "uid": "ASMA0000025892", "name": "Alpha Quadrant" }
        },
        {
          "uid": "ASMA0000015580",
          "name": "Arneb",
          "astronomicalObjectType": "STAR",
          "location": null
        },
        {
          "uid": "ASMA0000120894",
          "name": "Arnold's Planet",
          "astronomicalObjectType": "PLANET",
          "location": { "uid": "ASMA0000002015", "name": "Beta Quadrant" }
        },
        {
          "uid": "ASMA0000080189",
          "name": "Arret",
          "astronomicalObjectType": "PLANET",
          "location": { "uid": "ASMA0000025892", "name": "Alpha Quadrant" }
        },
        {
          "uid": "ASMA0000036394",
          "name": "Arret",
          "astronomicalObjectType": "PLANET",
          "location": null
        },
        {
          "uid": "ASMA0000007463",
          "name": "Arvada III",
          "astronomicalObjectType": "PLANET",
          "location": { "uid": "ASMA0000025892", "name": "Alpha Quadrant" }
        },
        {
          "uid": "ASMA0000288973",
          "name": "Ascella",
          "astronomicalObjectType": "STAR_SYSTEM",
          "location": { "uid": "ASMA0000025892", "name": "Alpha Quadrant" }
        },
        {
          "uid": "ASMA0000008427",
          "name": "Aschelan V",
          "astronomicalObjectType": "PLANET",
          "location": { "uid": "ASMA0000025892", "name": "Alpha Quadrant" }
        },
        {
          "uid": "ASMA0000278037",
          "name": "Asp XXVII",
          "astronomicalObjectType": "PLANET",
          "location": null
        },
        {
          "uid": "ASMA0000190120",
          "name": "Asteroid belt",
          "astronomicalObjectType": "ASTEROID_BELT",
          "location": { "uid": "ASMA0000000683", "name": "Mars" }
        }
      ]
    }
  },
  "__N_SSG": true
}
