{
  "pageProps": {
    "serversideData": {
      "page": {
        "pageNumber": 20,
        "pageSize": 10,
        "numberOfElements": 10,
        "totalElements": 2404,
        "totalPages": 241,
        "firstPage": false,
        "lastPage": false
      },
      "sort": { "clauses": [] },
      "astronomicalObjects": [
        {
          "uid": "ASMA0000103567",
          "name": "Avenal VII",
          "astronomicalObjectType": "PLANET",
          "location": { "uid": "ASMA0000025892", "name": "Alpha Quadrant" }
        },
        {
          "uid": "ASMA0000008605",
          "name": "Avery III",
          "astronomicalObjectType": "PLANET",
          "location": { "uid": "ASMA0000013619", "name": "Avery system" }
        },
        {
          "uid": "ASMA0000013619",
          "name": "Avery system",
          "astronomicalObjectType": "STAR_SYSTEM",
          "location": { "uid": "ASMA0000000662", "name": "Delta Quadrant" }
        },
        {
          "uid": "ASMA0000004050",
          "name": "Axanar",
          "astronomicalObjectType": "PLANET",
          "location": { "uid": "ASMA0000025892", "name": "Alpha Quadrant" }
        },
        {
          "uid": "ASMA0000004822",
          "name": "Azati Prime",
          "astronomicalObjectType": "PLANET",
          "location": { "uid": "ASMA0000271528", "name": "Azati Prime system" }
        },
        {
          "uid": "ASMA0000212477",
          "name": "Azati Prime",
          "astronomicalObjectType": "STAR",
          "location": { "uid": "ASMA0000271528", "name": "Azati Prime system" }
        },
        {
          "uid": "ASMA0000271528",
          "name": "Azati Prime system",
          "astronomicalObjectType": "STAR_SYSTEM",
          "location": { "uid": "ASMA0000001993", "name": "Delphic Expanse" }
        },
        {
          "uid": "ASMA0000009020",
          "name": "Azure Nebula",
          "astronomicalObjectType": "NEBULA",
          "location": {
            "uid": "ASMA0000054236",
            "name": "Federation-Klingon border"
          }
        },
        {
          "uid": "ASMA0000037716",
          "name": "B'Saari II",
          "astronomicalObjectType": "PLANET",
          "location": { "uid": "ASMA0000025892", "name": "Alpha Quadrant" }
        },
        {
          "uid": "ASMA0000268889",
          "name": "B'omar space",
          "astronomicalObjectType": "REGION",
          "location": { "uid": "ASMA0000000662", "name": "Delta Quadrant" }
        }
      ]
    }
  },
  "__N_SSG": true
}
