{
  "pageProps": {
    "serversideData": {
      "page": {
        "pageNumber": 21,
        "pageSize": 10,
        "numberOfElements": 10,
        "totalElements": 2404,
        "totalPages": 241,
        "firstPage": false,
        "lastPage": false
      },
      "sort": { "clauses": [] },
      "astronomicalObjects": [
        {
          "uid": "ASMA0000272612",
          "name": "B-9-3",
          "astronomicalObjectType": "MOON",
          "location": { "uid": "ASMA0000003565", "name": "Benzar" }
        },
        {
          "uid": "ASMA0000229698",
          "name": "Ba'ku",
          "astronomicalObjectType": "PLANET",
          "location": { "uid": "ASMA0000271674", "name": "Ba'ku system" }
        },
        {
          "uid": "ASMA0000271674",
          "name": "Ba'ku system",
          "astronomicalObjectType": "STAR_SYSTEM",
          "location": { "uid": "ASMA0000046528", "name": "Briar Patch" }
        },
        {
          "uid": "ASMA0000000534",
          "name": "Babel",
          "astronomicalObjectType": "PLANET",
          "location": { "uid": "ASMA0000025892", "name": "Alpha Quadrant" }
        },
        {
          "uid": "ASMA0000120323",
          "name": "Baber Nebula",
          "astronomicalObjectType": "NEBULA",
          "location": { "uid": "ASMA0000002015", "name": "Beta Quadrant" }
        },
        {
          "uid": "ASMA0000003156",
          "name": "Badlands",
          "astronomicalObjectType": "REGION",
          "location": { "uid": "ASMA0000025892", "name": "Alpha Quadrant" }
        },
        {
          "uid": "ASMA0000009088",
          "name": "Bajor",
          "astronomicalObjectType": "M_CLASS_PLANET",
          "location": { "uid": "ASMA0000000708", "name": "Bajoran system" }
        },
        {
          "uid": "ASMA0000107789",
          "name": "Bajor I",
          "astronomicalObjectType": "PLANET",
          "location": { "uid": "ASMA0000000708", "name": "Bajoran system" }
        },
        {
          "uid": "ASMA0000107790",
          "name": "Bajor II",
          "astronomicalObjectType": "PLANET",
          "location": { "uid": "ASMA0000000708", "name": "Bajoran system" }
        },
        {
          "uid": "ASMA0000168163",
          "name": "Bajor III",
          "astronomicalObjectType": "PLANET",
          "location": { "uid": "ASMA0000000708", "name": "Bajoran system" }
        }
      ]
    }
  },
  "__N_SSG": true
}
