{
  "pageProps": {
    "serversideData": {
      "page": {
        "pageNumber": 23,
        "pageSize": 10,
        "numberOfElements": 10,
        "totalElements": 2404,
        "totalPages": 241,
        "firstPage": false,
        "lastPage": false
      },
      "sort": { "clauses": [] },
      "astronomicalObjects": [
        {
          "uid": "ASMA0000001090",
          "name": "Bajor sector",
          "astronomicalObjectType": "SECTOR",
          "location": { "uid": "ASMA0000025892", "name": "Alpha Quadrant" }
        },
        {
          "uid": "ASMA0000028366",
          "name": "Bajoran space",
          "astronomicalObjectType": "REGION",
          "location": null
        },
        {
          "uid": "ASMA0000014005",
          "name": "Bajoran sun",
          "astronomicalObjectType": "STAR",
          "location": { "uid": "ASMA0000000708", "name": "Bajoran system" }
        },
        {
          "uid": "ASMA0000000708",
          "name": "Bajoran system",
          "astronomicalObjectType": "STAR_SYSTEM",
          "location": { "uid": "ASMA0000001090", "name": "Bajor sector" }
        },
        {
          "uid": "ASMA0000009568",
          "name": "Balancar",
          "astronomicalObjectType": "PLANET",
          "location": { "uid": "ASMA0000268977", "name": "Balancar system" }
        },
        {
          "uid": "ASMA0000268977",
          "name": "Balancar system",
          "astronomicalObjectType": "STAR_SYSTEM",
          "location": { "uid": "ASMA0000025892", "name": "Alpha Quadrant" }
        },
        {
          "uid": "ASMA0000056935",
          "name": "Balder's Planet",
          "astronomicalObjectType": "PLANET",
          "location": null
        },
        {
          "uid": "ASMA0000288955",
          "name": "Balosnee",
          "astronomicalObjectType": "STAR_SYSTEM",
          "location": { "uid": "ASMA0000025892", "name": "Alpha Quadrant" }
        },
        {
          "uid": "ASMA0000013573",
          "name": "Balosnee VI",
          "astronomicalObjectType": "PLANET",
          "location": { "uid": "ASMA0000025892", "name": "Alpha Quadrant" }
        },
        {
          "uid": "ASMA0000019650",
          "name": "Banea",
          "astronomicalObjectType": "PLANET",
          "location": { "uid": "ASMA0000000662", "name": "Delta Quadrant" }
        }
      ]
    }
  },
  "__N_SSG": true
}
