{
  "pageProps": {
    "serversideData": {
      "page": {
        "pageNumber": 24,
        "pageSize": 10,
        "numberOfElements": 10,
        "totalElements": 2404,
        "totalPages": 241,
        "firstPage": false,
        "lastPage": false
      },
      "sort": { "clauses": [] },
      "astronomicalObjects": [
        {
          "uid": "ASMA0000190454",
          "name": "Barash's species homeworld",
          "astronomicalObjectType": "PLANET",
          "location": { "uid": "ASMA0000025892", "name": "Alpha Quadrant" }
        },
        {
          "uid": "ASMA0000008461",
          "name": "Barisa Prime",
          "astronomicalObjectType": "PLANET",
          "location": { "uid": "ASMA0000025892", "name": "Alpha Quadrant" }
        },
        {
          "uid": "ASMA0000028850",
          "name": "Barkon IV",
          "astronomicalObjectType": "PLANET",
          "location": { "uid": "ASMA0000025892", "name": "Alpha Quadrant" }
        },
        {
          "uid": "ASMA0000052611",
          "name": "Barnard's Star",
          "astronomicalObjectType": "STAR",
          "location": { "uid": "ASMA0000025892", "name": "Alpha Quadrant" }
        },
        {
          "uid": "ASMA0000120895",
          "name": "Barnes Nebula",
          "astronomicalObjectType": "NEBULA",
          "location": { "uid": "ASMA0000002015", "name": "Beta Quadrant" }
        },
        {
          "uid": "ASMA0000120904",
          "name": "Barnett's Star",
          "astronomicalObjectType": "STAR",
          "location": { "uid": "ASMA0000002015", "name": "Beta Quadrant" }
        },
        {
          "uid": "ASMA0000008785",
          "name": "Barradas III",
          "astronomicalObjectType": "M_CLASS_PLANET",
          "location": { "uid": "ASMA0000049872", "name": "Barradas system" }
        },
        {
          "uid": "ASMA0000049872",
          "name": "Barradas system",
          "astronomicalObjectType": "STAR_SYSTEM",
          "location": { "uid": "ASMA0000049465", "name": "Sector 2158" }
        },
        {
          "uid": "ASMA0000023111",
          "name": "Barson II",
          "astronomicalObjectType": "PLANET",
          "location": { "uid": "ASMA0000025892", "name": "Alpha Quadrant" }
        },
        {
          "uid": "ASMA0000012313",
          "name": "Barzan II",
          "astronomicalObjectType": "PLANET",
          "location": { "uid": "ASMA0000025892", "name": "Alpha Quadrant" }
        }
      ]
    }
  },
  "__N_SSG": true
}
