{
  "pageProps": {
    "serversideData": {
      "page": {
        "pageNumber": 25,
        "pageSize": 10,
        "numberOfElements": 10,
        "totalElements": 2404,
        "totalPages": 241,
        "firstPage": false,
        "lastPage": false
      },
      "sort": { "clauses": [] },
      "astronomicalObjects": [
        {
          "uid": "ASMA0000067069",
          "name": "Bassen Rift",
          "astronomicalObjectType": "REGION",
          "location": { "uid": "ASMA0000002015", "name": "Beta Quadrant" }
        },
        {
          "uid": "ASMA0000053738",
          "name": "Bayard's Planet",
          "astronomicalObjectType": "PLANET",
          "location": { "uid": "ASMA0000053737", "name": "Phi Puma" }
        },
        {
          "uid": "ASMA0000264650",
          "name": "Belak system",
          "astronomicalObjectType": "STAR_SYSTEM",
          "location": { "uid": "ASMA0000002015", "name": "Beta Quadrant" }
        },
        {
          "uid": "ASMA0000012377",
          "name": "Beloti sector",
          "astronomicalObjectType": "SECTOR",
          "location": { "uid": "ASMA0000025892", "name": "Alpha Quadrant" }
        },
        {
          "uid": "ASMA0000023340",
          "name": "Beltane IX",
          "astronomicalObjectType": "PLANET",
          "location": { "uid": "ASMA0000025892", "name": "Alpha Quadrant" }
        },
        {
          "uid": "ASMA0000011023",
          "name": "Benecia",
          "astronomicalObjectType": "PLANET",
          "location": { "uid": "ASMA0000267998", "name": "Benecia system" }
        },
        {
          "uid": "ASMA0000267998",
          "name": "Benecia system",
          "astronomicalObjectType": "STAR_SYSTEM",
          "location": { "uid": "ASMA0000025892", "name": "Alpha Quadrant" }
        },
        {
          "uid": "ASMA0000006860",
          "name": "Benev Selec",
          "astronomicalObjectType": "PLANET",
          "location": {
            "uid": "ASMA0000165730",
            "name": "Selcundi Drema system"
          }
        },
        {
          "uid": "ASMA0000010854",
          "name": "Benthan system",
          "astronomicalObjectType": "STAR_SYSTEM",
          "location": { "uid": "ASMA0000000662", "name": "Delta Quadrant" }
        },
        {
          "uid": "ASMA0000264427",
          "name": "Benthos IV",
          "astronomicalObjectType": "PLANET",
          "location": { "uid": "ASMA0000002775", "name": "Milky Way Galaxy" }
        }
      ]
    }
  },
  "__N_SSG": true
}
