{
  "pageProps": {
    "serversideData": {
      "page": {
        "pageNumber": 28,
        "pageSize": 10,
        "numberOfElements": 10,
        "totalElements": 2404,
        "totalPages": 241,
        "firstPage": false,
        "lastPage": false
      },
      "sort": { "clauses": [] },
      "astronomicalObjects": [
        {
          "uid": "ASMA0000048898",
          "name": "Beta Cygni system",
          "astronomicalObjectType": "STAR_SYSTEM",
          "location": { "uid": "ASMA0000025892", "name": "Alpha Quadrant" }
        },
        {
          "uid": "ASMA0000193533",
          "name": "Beta Eminiar VII",
          "astronomicalObjectType": "PLANET",
          "location": { "uid": "ASMA0000025892", "name": "Alpha Quadrant" }
        },
        {
          "uid": "ASMA0000167549",
          "name": "Beta Epsilon system",
          "astronomicalObjectType": "STAR_SYSTEM",
          "location": { "uid": "ASMA0000025892", "name": "Alpha Quadrant" }
        },
        {
          "uid": "ASMA0000010993",
          "name": "Beta Geminorum",
          "astronomicalObjectType": "STAR",
          "location": {
            "uid": "ASMA0000034358",
            "name": "Beta Geminorum system"
          }
        },
        {
          "uid": "ASMA0000034358",
          "name": "Beta Geminorum system",
          "astronomicalObjectType": "STAR_SYSTEM",
          "location": { "uid": "ASMA0000025892", "name": "Alpha Quadrant" }
        },
        {
          "uid": "ASMA0000174473",
          "name": "Beta Hutzel",
          "astronomicalObjectType": "STAR",
          "location": { "uid": "ASMA0000002015", "name": "Beta Quadrant" }
        },
        {
          "uid": "ASMA0000011933",
          "name": "Beta III",
          "astronomicalObjectType": "PLANET",
          "location": { "uid": "ASMA0000011986", "name": "C-111 system" }
        },
        {
          "uid": "ASMA0000023400",
          "name": "Beta Lankal",
          "astronomicalObjectType": "STAR_SYSTEM",
          "location": { "uid": "ASMA0000002015", "name": "Beta Quadrant" }
        },
        {
          "uid": "ASMA0000229730",
          "name": "Beta Leonis Minoris",
          "astronomicalObjectType": "STAR_SYSTEM",
          "location": { "uid": "ASMA0000025892", "name": "Alpha Quadrant" }
        },
        {
          "uid": "ASMA0000010996",
          "name": "Beta Lyrae",
          "astronomicalObjectType": "STAR",
          "location": { "uid": "ASMA0000023644", "name": "Beta Lyrae system" }
        }
      ]
    }
  },
  "__N_SSG": true
}
