{
  "pageProps": {
    "serversideData": {
      "page": {
        "pageNumber": 29,
        "pageSize": 10,
        "numberOfElements": 10,
        "totalElements": 2404,
        "totalPages": 241,
        "firstPage": false,
        "lastPage": false
      },
      "sort": { "clauses": [] },
      "astronomicalObjects": [
        {
          "uid": "ASMA0000023644",
          "name": "Beta Lyrae system",
          "astronomicalObjectType": "STAR_SYSTEM",
          "location": { "uid": "ASMA0000025892", "name": "Alpha Quadrant" }
        },
        {
          "uid": "ASMA0000166253",
          "name": "Beta Magdaleno II",
          "astronomicalObjectType": "PLANET",
          "location": null
        },
        {
          "uid": "ASMA0000009898",
          "name": "Beta Magellan system",
          "astronomicalObjectType": "STAR_SYSTEM",
          "location": { "uid": "ASMA0000025892", "name": "Alpha Quadrant" }
        },
        {
          "uid": "ASMA0000023893",
          "name": "Beta Mahoga system",
          "astronomicalObjectType": "STAR_SYSTEM",
          "location": { "uid": "ASMA0000025892", "name": "Alpha Quadrant" }
        },
        {
          "uid": "ASMA0000027026",
          "name": "Beta Niobe",
          "astronomicalObjectType": "STAR",
          "location": { "uid": "ASMA0000264589", "name": "Beta Niobe Nebula" }
        },
        {
          "uid": "ASMA0000264589",
          "name": "Beta Niobe Nebula",
          "astronomicalObjectType": "NEBULA",
          "location": { "uid": "ASMA0000025892", "name": "Alpha Quadrant" }
        },
        {
          "uid": "ASMA0000196201",
          "name": "Beta Penthe",
          "astronomicalObjectType": "STAR",
          "location": { "uid": "ASMA0000067506", "name": "Beta Penthe system" }
        },
        {
          "uid": "ASMA0000189756",
          "name": "Beta Penthe I",
          "astronomicalObjectType": "PLANET",
          "location": { "uid": "ASMA0000067506", "name": "Beta Penthe system" }
        },
        {
          "uid": "ASMA0000189757",
          "name": "Beta Penthe II",
          "astronomicalObjectType": "PLANET",
          "location": { "uid": "ASMA0000067506", "name": "Beta Penthe system" }
        },
        {
          "uid": "ASMA0000189758",
          "name": "Beta Penthe III",
          "astronomicalObjectType": "PLANET",
          "location": { "uid": "ASMA0000067506", "name": "Beta Penthe system" }
        }
      ]
    }
  },
  "__N_SSG": true
}
