{
  "pageProps": {
    "serversideData": {
      "page": {
        "pageNumber": 30,
        "pageSize": 10,
        "numberOfElements": 10,
        "totalElements": 2404,
        "totalPages": 241,
        "firstPage": false,
        "lastPage": false
      },
      "sort": { "clauses": [] },
      "astronomicalObjects": [
        {
          "uid": "ASMA0000189759",
          "name": "Beta Penthe IV",
          "astronomicalObjectType": "PLANET",
          "location": { "uid": "ASMA0000067506", "name": "Beta Penthe system" }
        },
        {
          "uid": "ASMA0000189760",
          "name": "Beta Penthe V",
          "astronomicalObjectType": "PLANET",
          "location": { "uid": "ASMA0000067506", "name": "Beta Penthe system" }
        },
        {
          "uid": "ASMA0000189761",
          "name": "Beta Penthe VII",
          "astronomicalObjectType": "PLANET",
          "location": { "uid": "ASMA0000067506", "name": "Beta Penthe system" }
        },
        {
          "uid": "ASMA0000067506",
          "name": "Beta Penthe system",
          "astronomicalObjectType": "STAR_SYSTEM",
          "location": { "uid": "ASMA0000189713", "name": "Sector 21166" }
        },
        {
          "uid": "ASMA0000010994",
          "name": "Beta Portolan",
          "astronomicalObjectType": "STAR",
          "location": {
            "uid": "ASMA0000013239",
            "name": "Beta Portolan system"
          }
        },
        {
          "uid": "ASMA0000013239",
          "name": "Beta Portolan system",
          "astronomicalObjectType": "STAR_SYSTEM",
          "location": { "uid": "ASMA0000025892", "name": "Alpha Quadrant" }
        },
        {
          "uid": "ASMA0000053640",
          "name": "Beta Praxillus",
          "astronomicalObjectType": "STAR",
          "location": { "uid": "ASMA0000053627", "name": "Praxillus system" }
        },
        {
          "uid": "ASMA0000002015",
          "name": "Beta Quadrant",
          "astronomicalObjectType": "QUADRANT",
          "location": { "uid": "ASMA0000002775", "name": "Milky Way Galaxy" }
        },
        {
          "uid": "ASMA0000166067",
          "name": "Beta Renna system",
          "astronomicalObjectType": "STAR_SYSTEM",
          "location": { "uid": "ASMA0000025892", "name": "Alpha Quadrant" }
        },
        {
          "uid": "ASMA0000001037",
          "name": "Beta Renner system",
          "astronomicalObjectType": "STAR_SYSTEM",
          "location": { "uid": "ASMA0000167755", "name": "Sector 500" }
        }
      ]
    }
  },
  "__N_SSG": true
}
