{
  "pageProps": {
    "serversideData": {
      "page": {
        "pageNumber": 31,
        "pageSize": 10,
        "numberOfElements": 10,
        "totalElements": 2404,
        "totalPages": 241,
        "firstPage": false,
        "lastPage": false
      },
      "sort": { "clauses": [] },
      "astronomicalObjects": [
        {
          "uid": "ASMA0000001914",
          "name": "Beta Rigel",
          "astronomicalObjectType": "STAR_SYSTEM",
          "location": { "uid": "ASMA0000025892", "name": "Alpha Quadrant" }
        },
        {
          "uid": "ASMA0000010374",
          "name": "Beta Stromgren",
          "astronomicalObjectType": "STAR",
          "location": {
            "uid": "ASMA0000174538",
            "name": "Beta Stromgren system"
          }
        },
        {
          "uid": "ASMA0000174538",
          "name": "Beta Stromgren system",
          "astronomicalObjectType": "STAR_SYSTEM",
          "location": { "uid": "ASMA0000174539", "name": "Sector 25434" }
        },
        {
          "uid": "ASMA0000280559",
          "name": "Beta Tauri",
          "astronomicalObjectType": "STAR_SYSTEM",
          "location": { "uid": "ASMA0000025892", "name": "Alpha Quadrant" }
        },
        {
          "uid": "ASMA0000175706",
          "name": "Beta Tottoro IV",
          "astronomicalObjectType": "PLANET",
          "location": { "uid": "ASMA0000025892", "name": "Alpha Quadrant" }
        },
        {
          "uid": "ASMA0000048647",
          "name": "Beta Ursae Minor II",
          "astronomicalObjectType": "PLANET",
          "location": { "uid": "ASMA0000025892", "name": "Alpha Quadrant" }
        },
        {
          "uid": "ASMA0000166054",
          "name": "Beta V",
          "astronomicalObjectType": "PLANET",
          "location": { "uid": "ASMA0000025892", "name": "Alpha Quadrant" }
        },
        {
          "uid": "ASMA0000045341",
          "name": "Beta VI",
          "astronomicalObjectType": "PLANET",
          "location": { "uid": "ASMA0000025892", "name": "Alpha Quadrant" }
        },
        {
          "uid": "ASMA0000064904",
          "name": "Beta Wiltz III",
          "astronomicalObjectType": "PLANET",
          "location": null
        },
        {
          "uid": "ASMA0000027378",
          "name": "Beta XII-A",
          "astronomicalObjectType": "PLANET",
          "location": { "uid": "ASMA0000229730", "name": "Beta Leonis Minoris" }
        }
      ]
    }
  },
  "__N_SSG": true
}
