{
  "pageProps": {
    "serversideData": {
      "page": {
        "pageNumber": 33,
        "pageSize": 10,
        "numberOfElements": 10,
        "totalElements": 2404,
        "totalPages": 241,
        "firstPage": false,
        "lastPage": false
      },
      "sort": { "clauses": [] },
      "astronomicalObjects": [
        {
          "uid": "ASMA0000033604",
          "name": "Bilana III",
          "astronomicalObjectType": "PLANET",
          "location": { "uid": "ASMA0000025892", "name": "Alpha Quadrant" }
        },
        {
          "uid": "ASMA0000051599",
          "name": "Bilaren system",
          "astronomicalObjectType": "STAR_SYSTEM",
          "location": { "uid": "ASMA0000025892", "name": "Alpha Quadrant" }
        },
        {
          "uid": "ASMA0000287793",
          "name": "Binar III",
          "astronomicalObjectType": "PLANET",
          "location": { "uid": "ASMA0000025892", "name": "Alpha Quadrant" }
        },
        {
          "uid": "ASMA0000270306",
          "name": "Bitrus Expanse",
          "astronomicalObjectType": "REGION",
          "location": null
        },
        {
          "uid": "ASMA0000012199",
          "name": "Black cluster",
          "astronomicalObjectType": "CLUSTER",
          "location": { "uid": "ASMA0000025892", "name": "Alpha Quadrant" }
        },
        {
          "uid": "ASMA0000178572",
          "name": "Block 27",
          "astronomicalObjectType": "REGION",
          "location": { "uid": "ASMA0000178569", "name": "Sector 70" }
        },
        {
          "uid": "ASMA0000253918",
          "name": "Blue Horizon",
          "astronomicalObjectType": "PLANET",
          "location": { "uid": "ASMA0000025892", "name": "Alpha Quadrant" }
        },
        {
          "uid": "ASMA0000054779",
          "name": "Bokara VI",
          "astronomicalObjectType": "PLANET",
          "location": { "uid": "ASMA0000025892", "name": "Alpha Quadrant" }
        },
        {
          "uid": "ASMA0000079870",
          "name": "Bolarus",
          "astronomicalObjectType": "STAR_SYSTEM",
          "location": { "uid": "ASMA0000031107", "name": "Bolian sector" }
        },
        {
          "uid": "ASMA0000005774",
          "name": "Bolarus IX",
          "astronomicalObjectType": "PLANET",
          "location": { "uid": "ASMA0000079870", "name": "Bolarus" }
        }
      ]
    }
  },
  "__N_SSG": true
}
