{
  "pageProps": {
    "serversideData": {
      "page": {
        "pageNumber": 36,
        "pageSize": 10,
        "numberOfElements": 10,
        "totalElements": 2404,
        "totalPages": 241,
        "firstPage": false,
        "lastPage": false
      },
      "sort": { "clauses": [] },
      "astronomicalObjects": [
        {
          "uid": "ASMA0000099992",
          "name": "Braslota",
          "astronomicalObjectType": "STAR",
          "location": { "uid": "ASMA0000019448", "name": "Oneamisu sector" }
        },
        {
          "uid": "ASMA0000017584",
          "name": "Braslota system",
          "astronomicalObjectType": "STAR_SYSTEM",
          "location": { "uid": "ASMA0000019448", "name": "Oneamisu sector" }
        },
        {
          "uid": "ASMA0000010391",
          "name": "Brax",
          "astronomicalObjectType": "PLANET",
          "location": { "uid": "ASMA0000002016", "name": "Gamma Quadrant" }
        },
        {
          "uid": "ASMA0000024373",
          "name": "Bre'el IV",
          "astronomicalObjectType": "PLANET",
          "location": { "uid": "ASMA0000025892", "name": "Alpha Quadrant" }
        },
        {
          "uid": "ASMA0000090770",
          "name": "Bre'el IV moon",
          "astronomicalObjectType": "MOON",
          "location": { "uid": "ASMA0000024373", "name": "Bre'el IV" }
        },
        {
          "uid": "ASMA0000008464",
          "name": "Brechtian Cluster",
          "astronomicalObjectType": "CLUSTER",
          "location": null
        },
        {
          "uid": "ASMA0000005673",
          "name": "Breen",
          "astronomicalObjectType": "PLANET",
          "location": { "uid": "ASMA0000013496", "name": "Breen system" }
        },
        {
          "uid": "ASMA0000265570",
          "name": "Breen space",
          "astronomicalObjectType": "REGION",
          "location": null
        },
        {
          "uid": "ASMA0000013496",
          "name": "Breen system",
          "astronomicalObjectType": "STAR_SYSTEM",
          "location": { "uid": "ASMA0000025892", "name": "Alpha Quadrant" }
        },
        {
          "uid": "ASMA0000023842",
          "name": "Brekka",
          "astronomicalObjectType": "PLANET",
          "location": { "uid": "ASMA0000020049", "name": "Delos system" }
        }
      ]
    }
  },
  "__N_SSG": true
}
