{
  "pageProps": {
    "serversideData": {
      "page": {
        "pageNumber": 37,
        "pageSize": 10,
        "numberOfElements": 10,
        "totalElements": 2404,
        "totalPages": 241,
        "firstPage": false,
        "lastPage": false
      },
      "sort": { "clauses": [] },
      "astronomicalObjects": [
        {
          "uid": "ASMA0000033614",
          "name": "Brentalia",
          "astronomicalObjectType": "PLANET",
          "location": { "uid": "ASMA0000025892", "name": "Alpha Quadrant" }
        },
        {
          "uid": "ASMA0000229749",
          "name": "Brestant",
          "astronomicalObjectType": "STAR_SYSTEM",
          "location": { "uid": "ASMA0000262940", "name": "Klingon Zone" }
        },
        {
          "uid": "ASMA0000120326",
          "name": "Breton's Planet",
          "astronomicalObjectType": "PLANET",
          "location": { "uid": "ASMA0000002015", "name": "Beta Quadrant" }
        },
        {
          "uid": "ASMA0000046528",
          "name": "Briar Patch",
          "astronomicalObjectType": "REGION",
          "location": { "uid": "ASMA0000003613", "name": "Sector 441" }
        },
        {
          "uid": "ASMA0000268122",
          "name": "Bringloid",
          "astronomicalObjectType": "STAR",
          "location": { "uid": "ASMA0000003768", "name": "Bringloid system" }
        },
        {
          "uid": "ASMA0000000839",
          "name": "Bringloid V",
          "astronomicalObjectType": "M_CLASS_PLANET",
          "location": { "uid": "ASMA0000003768", "name": "Bringloid system" }
        },
        {
          "uid": "ASMA0000003768",
          "name": "Bringloid system",
          "astronomicalObjectType": "STAR_SYSTEM",
          "location": { "uid": "ASMA0000005231", "name": "Ficus sector" }
        },
        {
          "uid": "ASMA0000120321",
          "name": "Brookshire's Planet",
          "astronomicalObjectType": "PLANET",
          "location": { "uid": "ASMA0000002015", "name": "Beta Quadrant" }
        },
        {
          "uid": "ASMA0000012745",
          "name": "Browder IV",
          "astronomicalObjectType": "PLANET",
          "location": { "uid": "ASMA0000025892", "name": "Alpha Quadrant" }
        },
        {
          "uid": "ASMA0000032637",
          "name": "Brunali homeworld",
          "astronomicalObjectType": "PLANET",
          "location": { "uid": "ASMA0000000662", "name": "Delta Quadrant" }
        }
      ]
    }
  },
  "__N_SSG": true
}
