{
  "pageProps": {
    "serversideData": {
      "page": {
        "pageNumber": 3,
        "pageSize": 10,
        "numberOfElements": 10,
        "totalElements": 2404,
        "totalPages": 241,
        "firstPage": false,
        "lastPage": false
      },
      "sort": { "clauses": [] },
      "astronomicalObjects": [
        {
          "uid": "ASMA0000012121",
          "name": "Adelphous IV",
          "astronomicalObjectType": "PLANET",
          "location": { "uid": "ASMA0000228528", "name": "Adelphous" }
        },
        {
          "uid": "ASMA0000012208",
          "name": "Adigeon Prime",
          "astronomicalObjectType": "PLANET",
          "location": { "uid": "ASMA0000025892", "name": "Alpha Quadrant" }
        },
        {
          "uid": "ASMA0000080805",
          "name": "Agaron",
          "astronomicalObjectType": "PLANET",
          "location": { "uid": "ASMA0000025892", "name": "Alpha Quadrant" }
        },
        {
          "uid": "ASMA0000008432",
          "name": "Agrat-mot Nebula",
          "astronomicalObjectType": "NEBULA",
          "location": { "uid": "ASMA0000000662", "name": "Delta Quadrant" }
        },
        {
          "uid": "ASMA0000080756",
          "name": "Ahmedeen",
          "astronomicalObjectType": "PLANET",
          "location": { "uid": "ASMA0000002775", "name": "Milky Way Galaxy" }
        },
        {
          "uid": "ASMA0000253590",
          "name": "Aia",
          "astronomicalObjectType": "PLANET",
          "location": { "uid": "ASMA0000253878", "name": "Eightfold Stars" }
        },
        {
          "uid": "ASMA0000239778",
          "name": "Ajilon",
          "astronomicalObjectType": "STAR_SYSTEM",
          "location": { "uid": "ASMA0000262940", "name": "Klingon Zone" }
        },
        {
          "uid": "ASMA0000229643",
          "name": "Ajilon Prime",
          "astronomicalObjectType": "PLANET",
          "location": { "uid": "ASMA0000239778", "name": "Ajilon" }
        },
        {
          "uid": "ASMA0000060555",
          "name": "Akaali homeworld",
          "astronomicalObjectType": "M_CLASS_PLANET",
          "location": { "uid": "ASMA0000264535", "name": "Akaali system" }
        },
        {
          "uid": "ASMA0000264535",
          "name": "Akaali system",
          "astronomicalObjectType": "STAR_SYSTEM",
          "location": { "uid": "ASMA0000025892", "name": "Alpha Quadrant" }
        }
      ]
    }
  },
  "__N_SSG": true
}
