{
  "pageProps": {
    "serversideData": {
      "page": {
        "pageNumber": 39,
        "pageSize": 10,
        "numberOfElements": 10,
        "totalElements": 2404,
        "totalPages": 241,
        "firstPage": false,
        "lastPage": false
      },
      "sort": { "clauses": [] },
      "astronomicalObjects": [
        {
          "uid": "ASMA0000020872",
          "name": "Caere",
          "astronomicalObjectType": "PLANET",
          "location": { "uid": "ASMA0000002015", "name": "Beta Quadrant" }
        },
        {
          "uid": "ASMA0000223881",
          "name": "Cait",
          "astronomicalObjectType": "STAR_SYSTEM",
          "location": { "uid": "ASMA0000025892", "name": "Alpha Quadrant" }
        },
        {
          "uid": "ASMA0000243810",
          "name": "Cal Rae",
          "astronomicalObjectType": "PLANET",
          "location": { "uid": "ASMA0000243796", "name": "Kaminar system" }
        },
        {
          "uid": "ASMA0000008831",
          "name": "Calder II",
          "astronomicalObjectType": "PLANET",
          "location": { "uid": "ASMA0000165360", "name": "Calder system" }
        },
        {
          "uid": "ASMA0000165360",
          "name": "Calder system",
          "astronomicalObjectType": "STAR_SYSTEM",
          "location": { "uid": "ASMA0000049465", "name": "Sector 2158" }
        },
        {
          "uid": "ASMA0000009692",
          "name": "Caldik Prime",
          "astronomicalObjectType": "PLANET",
          "location": { "uid": "ASMA0000025892", "name": "Alpha Quadrant" }
        },
        {
          "uid": "ASMA0000013118",
          "name": "Caldonia",
          "astronomicalObjectType": "PLANET",
          "location": { "uid": "ASMA0000025892", "name": "Alpha Quadrant" }
        },
        {
          "uid": "ASMA0000007561",
          "name": "Caldos",
          "astronomicalObjectType": "PLANET",
          "location": { "uid": "ASMA0000025892", "name": "Alpha Quadrant" }
        },
        {
          "uid": "ASMA0000013898",
          "name": "Caleb IV",
          "astronomicalObjectType": "PLANET",
          "location": { "uid": "ASMA0000025892", "name": "Alpha Quadrant" }
        },
        {
          "uid": "ASMA0000004379",
          "name": "Calindra system",
          "astronomicalObjectType": "STAR_SYSTEM",
          "location": { "uid": "ASMA0000001993", "name": "Delphic Expanse" }
        }
      ]
    }
  },
  "__N_SSG": true
}
