{
  "pageProps": {
    "serversideData": {
      "page": {
        "pageNumber": 41,
        "pageSize": 10,
        "numberOfElements": 10,
        "totalElements": 2404,
        "totalPages": 241,
        "firstPage": false,
        "lastPage": false
      },
      "sort": { "clauses": [] },
      "astronomicalObjects": [
        {
          "uid": "ASMA0000229114",
          "name": "Cancri IV",
          "astronomicalObjectType": "PLANET",
          "location": { "uid": "ASMA0000229115", "name": "Cancri system" }
        },
        {
          "uid": "ASMA0000229115",
          "name": "Cancri system",
          "astronomicalObjectType": "STAR_SYSTEM",
          "location": { "uid": "ASMA0000025892", "name": "Alpha Quadrant" }
        },
        {
          "uid": "ASMA0000166385",
          "name": "Canis Major",
          "astronomicalObjectType": "CONSTELLATION",
          "location": null
        },
        {
          "uid": "ASMA0000166387",
          "name": "Canis Minor",
          "astronomicalObjectType": "CONSTELLATION",
          "location": null
        },
        {
          "uid": "ASMA0000010991",
          "name": "Canopus",
          "astronomicalObjectType": "STAR_SYSTEM",
          "location": { "uid": "ASMA0000002015", "name": "Beta Quadrant" }
        },
        {
          "uid": "ASMA0000011026",
          "name": "Canopus III",
          "astronomicalObjectType": "PLANET",
          "location": { "uid": "ASMA0000010991", "name": "Canopus" }
        },
        {
          "uid": "ASMA0000166065",
          "name": "Canopus Major",
          "astronomicalObjectType": "PLANET",
          "location": { "uid": "ASMA0000010991", "name": "Canopus" }
        },
        {
          "uid": "ASMA0000012104",
          "name": "Canopus Planet",
          "astronomicalObjectType": "PLANET",
          "location": { "uid": "ASMA0000010991", "name": "Canopus" }
        },
        {
          "uid": "ASMA0000120906",
          "name": "Cantamessa's Star",
          "astronomicalObjectType": "STAR",
          "location": { "uid": "ASMA0000002015", "name": "Beta Quadrant" }
        },
        {
          "uid": "ASMA0000010998",
          "name": "Capella",
          "astronomicalObjectType": "STAR_SYSTEM",
          "location": { "uid": "ASMA0000025892", "name": "Alpha Quadrant" }
        }
      ]
    }
  },
  "__N_SSG": true
}
