{
  "pageProps": {
    "serversideData": {
      "page": {
        "pageNumber": 49,
        "pageSize": 10,
        "numberOfElements": 10,
        "totalElements": 2404,
        "totalPages": 241,
        "firstPage": false,
        "lastPage": false
      },
      "sort": { "clauses": [] },
      "astronomicalObjects": [
        {
          "uid": "ASMA0000011554",
          "name": "Corinth IV",
          "astronomicalObjectType": "PLANET",
          "location": { "uid": "ASMA0000025892", "name": "Alpha Quadrant" }
        },
        {
          "uid": "ASMA0000071050",
          "name": "Cornelian star system",
          "astronomicalObjectType": "STAR_SYSTEM",
          "location": { "uid": "ASMA0000025892", "name": "Alpha Quadrant" }
        },
        {
          "uid": "ASMA0000262855",
          "name": "Corvan",
          "astronomicalObjectType": "STAR",
          "location": { "uid": "ASMA0000228522", "name": "Corvan system" }
        },
        {
          "uid": "ASMA0000227875",
          "name": "Corvan II",
          "astronomicalObjectType": "PLANETOID",
          "location": { "uid": "ASMA0000228522", "name": "Corvan system" }
        },
        {
          "uid": "ASMA0000228522",
          "name": "Corvan system",
          "astronomicalObjectType": "STAR_SYSTEM",
          "location": { "uid": "ASMA0000002015", "name": "Beta Quadrant" }
        },
        {
          "uid": "ASMA0000024935",
          "name": "Crab Nebula",
          "astronomicalObjectType": "NEBULA",
          "location": null
        },
        {
          "uid": "ASMA0000166125",
          "name": "Cravic homeworld",
          "astronomicalObjectType": "PLANET",
          "location": { "uid": "ASMA0000000662", "name": "Delta Quadrant" }
        },
        {
          "uid": "ASMA0000053304",
          "name": "Creation point",
          "astronomicalObjectType": "REGION",
          "location": { "uid": "ASMA0000011702", "name": "Galactic core" }
        },
        {
          "uid": "ASMA0000226358",
          "name": "Crepusculan homeworld",
          "astronomicalObjectType": "PLANET",
          "location": null
        },
        {
          "uid": "ASMA0000053857",
          "name": "Cruces system",
          "astronomicalObjectType": "STAR_SYSTEM",
          "location": { "uid": "ASMA0000025892", "name": "Alpha Quadrant" }
        }
      ]
    }
  },
  "__N_SSG": true
}
