{
  "pageProps": {
    "serversideData": {
      "page": {
        "pageNumber": 51,
        "pageSize": 10,
        "numberOfElements": 10,
        "totalElements": 2404,
        "totalPages": 241,
        "firstPage": false,
        "lastPage": false
      },
      "sort": { "clauses": [] },
      "astronomicalObjects": [
        {
          "uid": "ASMA0000212642",
          "name": "Cytherian homeworld",
          "astronomicalObjectType": "PLANET",
          "location": { "uid": "ASMA0000011702", "name": "Galactic core" }
        },
        {
          "uid": "ASMA0000080757",
          "name": "Cytrax",
          "astronomicalObjectType": "PLANET",
          "location": { "uid": "ASMA0000000662", "name": "Delta Quadrant" }
        },
        {
          "uid": "ASMA0000174464",
          "name": "D'Arrest",
          "astronomicalObjectType": "COMET",
          "location": { "uid": "ASMA0000000243", "name": "Sol system" }
        },
        {
          "uid": "ASMA0000165268",
          "name": "D'Arsay system",
          "astronomicalObjectType": "STAR_SYSTEM",
          "location": { "uid": "ASMA0000025892", "name": "Alpha Quadrant" }
        },
        {
          "uid": "ASMA0000229651",
          "name": "D'deridex",
          "astronomicalObjectType": "STAR_SYSTEM",
          "location": { "uid": "ASMA0000002015", "name": "Beta Quadrant" }
        },
        {
          "uid": "ASMA0000283655",
          "name": "Da'Karo",
          "astronomicalObjectType": "PLANET",
          "location": null
        },
        {
          "uid": "ASMA0000283656",
          "name": "Da'Karo Prime",
          "astronomicalObjectType": "PLANET",
          "location": null
        },
        {
          "uid": "ASMA0000019450",
          "name": "Dakala",
          "astronomicalObjectType": "ROGUE_PLANET",
          "location": { "uid": "ASMA0000025892", "name": "Alpha Quadrant" }
        },
        {
          "uid": "ASMA0000027343",
          "name": "Daled IV",
          "astronomicalObjectType": "PLANET",
          "location": { "uid": "ASMA0000025892", "name": "Alpha Quadrant" }
        },
        {
          "uid": "ASMA0000168760",
          "name": "Daled V",
          "astronomicalObjectType": "PLANET",
          "location": { "uid": "ASMA0000025892", "name": "Alpha Quadrant" }
        }
      ]
    }
  },
  "__N_SSG": true
}
