{
  "pageProps": {
    "serversideData": {
      "page": {
        "pageNumber": 52,
        "pageSize": 10,
        "numberOfElements": 10,
        "totalElements": 2404,
        "totalPages": 241,
        "firstPage": false,
        "lastPage": false
      },
      "sort": { "clauses": [] },
      "astronomicalObjects": [
        {
          "uid": "ASMA0000076754",
          "name": "Dalmine sector",
          "astronomicalObjectType": "SECTOR",
          "location": { "uid": "ASMA0000000662", "name": "Delta Quadrant" }
        },
        {
          "uid": "ASMA0000027043",
          "name": "Dalvos Prime",
          "astronomicalObjectType": "PLANET",
          "location": { "uid": "ASMA0000025892", "name": "Alpha Quadrant" }
        },
        {
          "uid": "ASMA0000263854",
          "name": "Dannus",
          "astronomicalObjectType": "STAR",
          "location": { "uid": "ASMA0000025892", "name": "Alpha Quadrant" }
        },
        {
          "uid": "ASMA0000263860",
          "name": "Dannus I",
          "astronomicalObjectType": "PLANET",
          "location": { "uid": "ASMA0000263854", "name": "Dannus" }
        },
        {
          "uid": "ASMA0000263861",
          "name": "Dannus II",
          "astronomicalObjectType": "PLANET",
          "location": { "uid": "ASMA0000263854", "name": "Dannus" }
        },
        {
          "uid": "ASMA0000263864",
          "name": "Dannus III",
          "astronomicalObjectType": "PLANET",
          "location": { "uid": "ASMA0000263854", "name": "Dannus" }
        },
        {
          "uid": "ASMA0000263865",
          "name": "Dannus IV",
          "astronomicalObjectType": "PLANET",
          "location": { "uid": "ASMA0000263854", "name": "Dannus" }
        },
        {
          "uid": "ASMA0000263827",
          "name": "Dannus V",
          "astronomicalObjectType": "M_CLASS_PLANET",
          "location": { "uid": "ASMA0000263854", "name": "Dannus" }
        },
        {
          "uid": "ASMA0000263866",
          "name": "Dannus VI",
          "astronomicalObjectType": "PLANET",
          "location": { "uid": "ASMA0000263854", "name": "Dannus" }
        },
        {
          "uid": "ASMA0000272055",
          "name": "Dansk",
          "astronomicalObjectType": "M_CLASS_PLANET",
          "location": { "uid": "ASMA0000025892", "name": "Alpha Quadrant" }
        }
      ]
    }
  },
  "__N_SSG": true
}
