{
  "pageProps": {
    "serversideData": {
      "page": {
        "pageNumber": 55,
        "pageSize": 10,
        "numberOfElements": 10,
        "totalElements": 2404,
        "totalPages": 241,
        "firstPage": false,
        "lastPage": false
      },
      "sort": { "clauses": [] },
      "astronomicalObjects": [
        {
          "uid": "ASMA0000020049",
          "name": "Delos system",
          "astronomicalObjectType": "STAR_SYSTEM",
          "location": { "uid": "ASMA0000025892", "name": "Alpha Quadrant" }
        },
        {
          "uid": "ASMA0000039533",
          "name": "Delphi Ardu IV",
          "astronomicalObjectType": "M_CLASS_PLANET",
          "location": { "uid": "ASMA0000000746", "name": "Delphi Ardu system" }
        },
        {
          "uid": "ASMA0000000746",
          "name": "Delphi Ardu system",
          "astronomicalObjectType": "STAR_SYSTEM",
          "location": { "uid": "ASMA0000025892", "name": "Alpha Quadrant" }
        },
        {
          "uid": "ASMA0000001993",
          "name": "Delphic Expanse",
          "astronomicalObjectType": "REGION",
          "location": { "uid": "ASMA0000002015", "name": "Beta Quadrant" }
        },
        {
          "uid": "ASMA0000232922",
          "name": "Delta 2",
          "astronomicalObjectType": "MOON",
          "location": { "uid": "ASMA0000232924", "name": "Veda system" }
        },
        {
          "uid": "ASMA0000288965",
          "name": "Delta Aquilae",
          "astronomicalObjectType": "STAR_SYSTEM",
          "location": { "uid": "ASMA0000025892", "name": "Alpha Quadrant" }
        },
        {
          "uid": "ASMA0000056052",
          "name": "Delta Charnock IX",
          "astronomicalObjectType": "PLANET",
          "location": null
        },
        {
          "uid": "ASMA0000006103",
          "name": "Delta IV",
          "astronomicalObjectType": "PLANET",
          "location": { "uid": "ASMA0000262821", "name": "Delta system" }
        },
        {
          "uid": "ASMA0000193527",
          "name": "Delta IX",
          "astronomicalObjectType": "PLANET",
          "location": { "uid": "ASMA0000262821", "name": "Delta system" }
        },
        {
          "uid": "ASMA0000000662",
          "name": "Delta Quadrant",
          "astronomicalObjectType": "QUADRANT",
          "location": { "uid": "ASMA0000002775", "name": "Milky Way Galaxy" }
        }
      ]
    }
  },
  "__N_SSG": true
}
