{
  "pageProps": {
    "serversideData": {
      "page": {
        "pageNumber": 56,
        "pageSize": 10,
        "numberOfElements": 10,
        "totalElements": 2404,
        "totalPages": 241,
        "firstPage": false,
        "lastPage": false
      },
      "sort": { "clauses": [] },
      "astronomicalObjects": [
        {
          "uid": "ASMA0000003769",
          "name": "Delta Rana star system",
          "astronomicalObjectType": "STAR_SYSTEM",
          "location": { "uid": "ASMA0000025892", "name": "Alpha Quadrant" }
        },
        {
          "uid": "ASMA0000280307",
          "name": "Delta Scorpii VII",
          "astronomicalObjectType": "PLANET",
          "location": { "uid": "ASMA0000025892", "name": "Alpha Quadrant" }
        },
        {
          "uid": "ASMA0000014965",
          "name": "Delta Theta III",
          "astronomicalObjectType": "M_CLASS_PLANET",
          "location": { "uid": "ASMA0000025892", "name": "Alpha Quadrant" }
        },
        {
          "uid": "ASMA0000024803",
          "name": "Delta Triangle",
          "astronomicalObjectType": "SECTOR",
          "location": { "uid": "ASMA0000002775", "name": "Milky Way Galaxy" }
        },
        {
          "uid": "ASMA0000166868",
          "name": "Delta Vega",
          "astronomicalObjectType": "PLANET",
          "location": { "uid": "ASMA0000007355", "name": "Galactic barrier" }
        },
        {
          "uid": "ASMA0000115223",
          "name": "Delta Vega",
          "astronomicalObjectType": "M_CLASS_PLANET",
          "location": { "uid": "ASMA0000001073", "name": "40 Eridani A" }
        },
        {
          "uid": "ASMA0000048775",
          "name": "Delta Vega sector",
          "astronomicalObjectType": "SECTOR",
          "location": { "uid": "ASMA0000025892", "name": "Alpha Quadrant" }
        },
        {
          "uid": "ASMA0000273648",
          "name": "Delta sector",
          "astronomicalObjectType": "SECTOR",
          "location": { "uid": "ASMA0000025892", "name": "Alpha Quadrant" }
        },
        {
          "uid": "ASMA0000262821",
          "name": "Delta system",
          "astronomicalObjectType": "STAR_SYSTEM",
          "location": { "uid": "ASMA0000025892", "name": "Alpha Quadrant" }
        },
        {
          "uid": "ASMA0000054692",
          "name": "Deltived asteroid belt",
          "astronomicalObjectType": "ASTEROID_BELT",
          "location": null
        }
      ]
    }
  },
  "__N_SSG": true
}
