{
  "pageProps": {
    "serversideData": {
      "page": {
        "pageNumber": 58,
        "pageSize": 10,
        "numberOfElements": 10,
        "totalElements": 2404,
        "totalPages": 241,
        "firstPage": false,
        "lastPage": false
      },
      "sort": { "clauses": [] },
      "astronomicalObjects": [
        {
          "uid": "ASMA0000229667",
          "name": "Denevan sun",
          "astronomicalObjectType": "STAR",
          "location": { "uid": "ASMA0000092532", "name": "Deneva system" }
        },
        {
          "uid": "ASMA0000008481",
          "name": "Denius III",
          "astronomicalObjectType": "PLANET",
          "location": { "uid": "ASMA0000025892", "name": "Alpha Quadrant" }
        },
        {
          "uid": "ASMA0000169390",
          "name": "Denkir IV",
          "astronomicalObjectType": "PLANET",
          "location": { "uid": "ASMA0000025892", "name": "Alpha Quadrant" }
        },
        {
          "uid": "ASMA0000028822",
          "name": "Denkiri Arm",
          "astronomicalObjectType": "REGION",
          "location": { "uid": "ASMA0000002016", "name": "Gamma Quadrant" }
        },
        {
          "uid": "ASMA0000004385",
          "name": "Denobula",
          "astronomicalObjectType": "PLANET",
          "location": {
            "uid": "ASMA0000038738",
            "name": "Denobula Triaxa system"
          }
        },
        {
          "uid": "ASMA0000038738",
          "name": "Denobula Triaxa system",
          "astronomicalObjectType": "STAR_SYSTEM",
          "location": { "uid": "ASMA0000025892", "name": "Alpha Quadrant" }
        },
        {
          "uid": "ASMA0000004552",
          "name": "Denorios belt",
          "astronomicalObjectType": "REGION",
          "location": { "uid": "ASMA0000000708", "name": "Bajoran system" }
        },
        {
          "uid": "ASMA0000045287",
          "name": "Deriben V",
          "astronomicalObjectType": "PLANET",
          "location": { "uid": "ASMA0000025892", "name": "Alpha Quadrant" }
        },
        {
          "uid": "ASMA0000006782",
          "name": "Derna",
          "astronomicalObjectType": "MOON",
          "location": { "uid": "ASMA0000009088", "name": "Bajor" }
        },
        {
          "uid": "ASMA0000264602",
          "name": "Dessica",
          "astronomicalObjectType": "STAR_SYSTEM",
          "location": { "uid": "ASMA0000049465", "name": "Sector 2158" }
        }
      ]
    }
  },
  "__N_SSG": true
}
