{
  "pageProps": {
    "serversideData": {
      "page": {
        "pageNumber": 5,
        "pageSize": 10,
        "numberOfElements": 10,
        "totalElements": 2404,
        "totalPages": 241,
        "firstPage": false,
        "lastPage": false
      },
      "sort": { "clauses": [] },
      "astronomicalObjects": [
        {
          "uid": "ASMA0000021715",
          "name": "Aldebaron III",
          "astronomicalObjectType": "PLANET",
          "location": { "uid": "ASMA0000025892", "name": "Alpha Quadrant" }
        },
        {
          "uid": "ASMA0000011999",
          "name": "Alderaan",
          "astronomicalObjectType": "PLANET",
          "location": { "uid": "ASMA0000025892", "name": "Alpha Quadrant" }
        },
        {
          "uid": "ASMA0000011019",
          "name": "Alfa 177",
          "astronomicalObjectType": "PLANET",
          "location": { "uid": "ASMA0000025892", "name": "Alpha Quadrant" }
        },
        {
          "uid": "ASMA0000070469",
          "name": "Algeron IV",
          "astronomicalObjectType": "PLANET",
          "location": { "uid": "ASMA0000281800", "name": "Algeron system" }
        },
        {
          "uid": "ASMA0000281800",
          "name": "Algeron system",
          "astronomicalObjectType": "STAR_SYSTEM",
          "location": { "uid": "ASMA0000002015", "name": "Beta Quadrant" }
        },
        {
          "uid": "ASMA0000047626",
          "name": "Algira sector",
          "astronomicalObjectType": "SECTOR",
          "location": { "uid": "ASMA0000025892", "name": "Alpha Quadrant" }
        },
        {
          "uid": "ASMA0000280280",
          "name": "Algol I",
          "astronomicalObjectType": "PLANET",
          "location": { "uid": "ASMA0000262937", "name": "Algol system" }
        },
        {
          "uid": "ASMA0000262937",
          "name": "Algol system",
          "astronomicalObjectType": "STAR_SYSTEM",
          "location": { "uid": "ASMA0000025892", "name": "Alpha Quadrant" }
        },
        {
          "uid": "ASMA0000273855",
          "name": "Alhena",
          "astronomicalObjectType": "STAR_SYSTEM",
          "location": { "uid": "ASMA0000002015", "name": "Beta Quadrant" }
        },
        {
          "uid": "ASMA0000226310",
          "name": "Alioth",
          "astronomicalObjectType": "STAR",
          "location": null
        }
      ]
    }
  },
  "__N_SSG": true
}
