{
  "pageProps": {
    "serversideData": {
      "page": {
        "pageNumber": 59,
        "pageSize": 10,
        "numberOfElements": 10,
        "totalElements": 2404,
        "totalPages": 241,
        "firstPage": false,
        "lastPage": false
      },
      "sort": { "clauses": [] },
      "astronomicalObjects": [
        {
          "uid": "ASMA0000012627",
          "name": "Dessica II",
          "astronomicalObjectType": "PLANET",
          "location": { "uid": "ASMA0000264602", "name": "Dessica" }
        },
        {
          "uid": "ASMA0000046282",
          "name": "Detria II",
          "astronomicalObjectType": "GAS_GIANT_PLANET",
          "location": { "uid": "ASMA0000037476", "name": "Detrian system" }
        },
        {
          "uid": "ASMA0000046283",
          "name": "Detria VI",
          "astronomicalObjectType": "GAS_GIANT_PLANET",
          "location": { "uid": "ASMA0000037476", "name": "Detrian system" }
        },
        {
          "uid": "ASMA0000037476",
          "name": "Detrian system",
          "astronomicalObjectType": "STAR_SYSTEM",
          "location": { "uid": "ASMA0000025892", "name": "Alpha Quadrant" }
        },
        {
          "uid": "ASMA0000022346",
          "name": "Devidia II",
          "astronomicalObjectType": "PLANET",
          "location": { "uid": "ASMA0000044885", "name": "Devidia system" }
        },
        {
          "uid": "ASMA0000044885",
          "name": "Devidia system",
          "astronomicalObjectType": "STAR_SYSTEM",
          "location": { "uid": "ASMA0000044886", "name": "Marrab sector" }
        },
        {
          "uid": "ASMA0000006563",
          "name": "Devolin system",
          "astronomicalObjectType": "STAR_SYSTEM",
          "location": { "uid": "ASMA0000042683", "name": "Sector 1607" }
        },
        {
          "uid": "ASMA0000262781",
          "name": "Devore homeworld",
          "astronomicalObjectType": "PLANET",
          "location": { "uid": "ASMA0000000662", "name": "Delta Quadrant" }
        },
        {
          "uid": "ASMA0000009708",
          "name": "Devos II",
          "astronomicalObjectType": "PLANET",
          "location": { "uid": "ASMA0000025892", "name": "Alpha Quadrant" }
        },
        {
          "uid": "ASMA0000004251",
          "name": "Devron system",
          "astronomicalObjectType": "STAR_SYSTEM",
          "location": {
            "uid": "ASMA0000006083",
            "name": "Romulan Neutral Zone"
          }
        }
      ]
    }
  },
  "__N_SSG": true
}
