{
  "pageProps": {
    "serversideData": {
      "page": {
        "pageNumber": 61,
        "pageSize": 10,
        "numberOfElements": 10,
        "totalElements": 2404,
        "totalPages": 241,
        "firstPage": false,
        "lastPage": false
      },
      "sort": { "clauses": [] },
      "astronomicalObjects": [
        {
          "uid": "ASMA0000018925",
          "name": "Donatu V",
          "astronomicalObjectType": "PLANET",
          "location": { "uid": "ASMA0000264641", "name": "Donatu" }
        },
        {
          "uid": "ASMA0000261986",
          "name": "Donatu VII",
          "astronomicalObjectType": "PLANET",
          "location": { "uid": "ASMA0000264641", "name": "Donatu" }
        },
        {
          "uid": "ASMA0000010074",
          "name": "Dopa system",
          "astronomicalObjectType": "STAR_SYSTEM",
          "location": { "uid": "ASMA0000025892", "name": "Alpha Quadrant" }
        },
        {
          "uid": "ASMA0000264548",
          "name": "Dopteria",
          "astronomicalObjectType": "STAR_SYSTEM",
          "location": { "uid": "ASMA0000025892", "name": "Alpha Quadrant" }
        },
        {
          "uid": "ASMA0000031779",
          "name": "Doraf I",
          "astronomicalObjectType": "PLANET",
          "location": { "uid": "ASMA0000025892", "name": "Alpha Quadrant" }
        },
        {
          "uid": "ASMA0000075220",
          "name": "Dorala system",
          "astronomicalObjectType": "STAR_SYSTEM",
          "location": { "uid": "ASMA0000002015", "name": "Beta Quadrant" }
        },
        {
          "uid": "ASMA0000008554",
          "name": "Dorias Cluster",
          "astronomicalObjectType": "CLUSTER",
          "location": null
        },
        {
          "uid": "ASMA0000011315",
          "name": "Dorvan V",
          "astronomicalObjectType": "PLANET",
          "location": { "uid": "ASMA0000054040", "name": "Dorvan sector" }
        },
        {
          "uid": "ASMA0000054040",
          "name": "Dorvan sector",
          "astronomicalObjectType": "SECTOR",
          "location": { "uid": "ASMA0000025892", "name": "Alpha Quadrant" }
        },
        {
          "uid": "ASMA0000064849",
          "name": "Dosi homeworld",
          "astronomicalObjectType": "PLANET",
          "location": { "uid": "ASMA0000002016", "name": "Gamma Quadrant" }
        }
      ]
    }
  },
  "__N_SSG": true
}
