{
  "pageProps": {
    "serversideData": {
      "page": {
        "pageNumber": 62,
        "pageSize": 10,
        "numberOfElements": 10,
        "totalElements": 2404,
        "totalPages": 241,
        "firstPage": false,
        "lastPage": false
      },
      "sort": { "clauses": [] },
      "astronomicalObjects": [
        {
          "uid": "ASMA0000120341",
          "name": "Downer's Star",
          "astronomicalObjectType": "STAR",
          "location": { "uid": "ASMA0000002015", "name": "Beta Quadrant" }
        },
        {
          "uid": "ASMA0000010795",
          "name": "Dozaria",
          "astronomicalObjectType": "M_CLASS_PLANET",
          "location": { "uid": "ASMA0000072184", "name": "Dozaria system" }
        },
        {
          "uid": "ASMA0000072184",
          "name": "Dozaria system",
          "astronomicalObjectType": "STAR_SYSTEM",
          "location": { "uid": "ASMA0000025892", "name": "Alpha Quadrant" }
        },
        {
          "uid": "ASMA0000232907",
          "name": "Draken",
          "astronomicalObjectType": "STAR",
          "location": { "uid": "ASMA0000165362", "name": "Draken system" }
        },
        {
          "uid": "ASMA0000012629",
          "name": "Draken IV",
          "astronomicalObjectType": "PLANET",
          "location": { "uid": "ASMA0000165362", "name": "Draken system" }
        },
        {
          "uid": "ASMA0000165362",
          "name": "Draken system",
          "astronomicalObjectType": "STAR_SYSTEM",
          "location": { "uid": "ASMA0000049465", "name": "Sector 2158" }
        },
        {
          "uid": "ASMA0000056870",
          "name": "Dramen star system",
          "astronomicalObjectType": "STAR_SYSTEM",
          "location": { "uid": "ASMA0000025892", "name": "Alpha Quadrant" }
        },
        {
          "uid": "ASMA0000016746",
          "name": "Dramia",
          "astronomicalObjectType": "PLANET",
          "location": { "uid": "ASMA0000056870", "name": "Dramen star system" }
        },
        {
          "uid": "ASMA0000016744",
          "name": "Dramia II",
          "astronomicalObjectType": "PLANET",
          "location": { "uid": "ASMA0000056870", "name": "Dramen star system" }
        },
        {
          "uid": "ASMA0000049887",
          "name": "Drayan II",
          "astronomicalObjectType": "PLANET",
          "location": { "uid": "ASMA0000000662", "name": "Delta Quadrant" }
        }
      ]
    }
  },
  "__N_SSG": true
}
