{
  "pageProps": {
    "serversideData": {
      "page": {
        "pageNumber": 63,
        "pageSize": 10,
        "numberOfElements": 10,
        "totalElements": 2404,
        "totalPages": 241,
        "firstPage": false,
        "lastPage": false
      },
      "sort": { "clauses": [] },
      "astronomicalObjects": [
        {
          "uid": "ASMA0000010849",
          "name": "Draygo IV",
          "astronomicalObjectType": "M_CLASS_PLANET",
          "location": { "uid": "ASMA0000100091", "name": "Cardassian sector" }
        },
        {
          "uid": "ASMA0000003896",
          "name": "Draylax",
          "astronomicalObjectType": "PLANET",
          "location": { "uid": "ASMA0000025892", "name": "Alpha Quadrant" }
        },
        {
          "uid": "ASMA0000037067",
          "name": "Draylon II",
          "astronomicalObjectType": "M_CLASS_PLANET",
          "location": { "uid": "ASMA0000025892", "name": "Alpha Quadrant" }
        },
        {
          "uid": "ASMA0000228797",
          "name": "Dream Alien's homeworld",
          "astronomicalObjectType": "PLANET",
          "location": { "uid": "ASMA0000000662", "name": "Delta Quadrant" }
        },
        {
          "uid": "ASMA0000085903",
          "name": "Drema V",
          "astronomicalObjectType": "PLANET",
          "location": {
            "uid": "ASMA0000165730",
            "name": "Selcundi Drema system"
          }
        },
        {
          "uid": "ASMA0000003158",
          "name": "Dreon VII",
          "astronomicalObjectType": "PLANET",
          "location": { "uid": "ASMA0000066520", "name": "Dreon system" }
        },
        {
          "uid": "ASMA0000066520",
          "name": "Dreon system",
          "astronomicalObjectType": "STAR_SYSTEM",
          "location": { "uid": "ASMA0000025892", "name": "Alpha Quadrant" }
        },
        {
          "uid": "ASMA0000226312",
          "name": "Dubhe",
          "astronomicalObjectType": "STAR",
          "location": null
        },
        {
          "uid": "ASMA0000282765",
          "name": "Dulaine",
          "astronomicalObjectType": "PLANET",
          "location": { "uid": "ASMA0000025892", "name": "Alpha Quadrant" }
        },
        {
          "uid": "ASMA0000031794",
          "name": "Dulisian IV",
          "astronomicalObjectType": "PLANET",
          "location": { "uid": "ASMA0000025892", "name": "Alpha Quadrant" }
        }
      ]
    }
  },
  "__N_SSG": true
}
