{
  "pageProps": {
    "serversideData": {
      "page": {
        "pageNumber": 64,
        "pageSize": 10,
        "numberOfElements": 10,
        "totalElements": 2404,
        "totalPages": 241,
        "firstPage": false,
        "lastPage": false
      },
      "sort": { "clauses": [] },
      "astronomicalObjects": [
        {
          "uid": "ASMA0000111025",
          "name": "Dumbbell Nebula",
          "astronomicalObjectType": "NEBULA",
          "location": { "uid": "ASMA0000002775", "name": "Milky Way Galaxy" }
        },
        {
          "uid": "ASMA0000019032",
          "name": "Durenia IV",
          "astronomicalObjectType": "PLANET",
          "location": { "uid": "ASMA0000025892", "name": "Alpha Quadrant" }
        },
        {
          "uid": "ASMA0000000730",
          "name": "Dytallix B",
          "astronomicalObjectType": "PLANET",
          "location": { "uid": "ASMA0000011541", "name": "Mira Antlia system" }
        },
        {
          "uid": "ASMA0000068431",
          "name": "Eagle Nebula",
          "astronomicalObjectType": "NEBULA",
          "location": null
        },
        {
          "uid": "ASMA0000020577",
          "name": "Earth",
          "astronomicalObjectType": "M_CLASS_PLANET",
          "location": { "uid": "ASMA0000000243", "name": "Sol system" }
        },
        {
          "uid": "ASMA0000212751",
          "name": "Eastern lights",
          "astronomicalObjectType": "CONSTELLATION",
          "location": null
        },
        {
          "uid": "ASMA0000068945",
          "name": "Eblar Prime",
          "astronomicalObjectType": "PLANET",
          "location": { "uid": "ASMA0000000662", "name": "Delta Quadrant" }
        },
        {
          "uid": "ASMA0000047468",
          "name": "Echevarria system",
          "astronomicalObjectType": "STAR_SYSTEM",
          "location": { "uid": "ASMA0000002015", "name": "Beta Quadrant" }
        },
        {
          "uid": "ASMA0000012542",
          "name": "Eden",
          "astronomicalObjectType": "PLANET",
          "location": {
            "uid": "ASMA0000006083",
            "name": "Romulan Neutral Zone"
          }
        },
        {
          "uid": "ASMA0000036509",
          "name": "Edos",
          "astronomicalObjectType": "PLANET",
          "location": { "uid": "ASMA0000025892", "name": "Alpha Quadrant" }
        }
      ]
    }
  },
  "__N_SSG": true
}
