{
  "pageProps": {
    "serversideData": {
      "page": {
        "pageNumber": 67,
        "pageSize": 10,
        "numberOfElements": 10,
        "totalElements": 2404,
        "totalPages": 241,
        "firstPage": false,
        "lastPage": false
      },
      "sort": { "clauses": [] },
      "astronomicalObjects": [
        {
          "uid": "ASMA0000097610",
          "name": "Ennan VI",
          "astronomicalObjectType": "PLANET",
          "location": { "uid": "ASMA0000025892", "name": "Alpha Quadrant" }
        },
        {
          "uid": "ASMA0000213628",
          "name": "Ennis and Nol-Ennis homeworld",
          "astronomicalObjectType": "PLANET",
          "location": { "uid": "ASMA0000002016", "name": "Gamma Quadrant" }
        },
        {
          "uid": "ASMA0000017445",
          "name": "Epsilon 119",
          "astronomicalObjectType": "STAR",
          "location": null
        },
        {
          "uid": "ASMA0000018603",
          "name": "Epsilon Ashanti III",
          "astronomicalObjectType": "PLANET",
          "location": { "uid": "ASMA0000025892", "name": "Alpha Quadrant" }
        },
        {
          "uid": "ASMA0000016714",
          "name": "Epsilon Canaris",
          "astronomicalObjectType": "STAR_SYSTEM",
          "location": { "uid": "ASMA0000025892", "name": "Alpha Quadrant" }
        },
        {
          "uid": "ASMA0000016399",
          "name": "Epsilon Canaris III",
          "astronomicalObjectType": "PLANET",
          "location": { "uid": "ASMA0000016714", "name": "Epsilon Canaris" }
        },
        {
          "uid": "ASMA0000052603",
          "name": "Epsilon Eridani",
          "astronomicalObjectType": "STAR_SYSTEM",
          "location": { "uid": "ASMA0000025892", "name": "Alpha Quadrant" }
        },
        {
          "uid": "ASMA0000289006",
          "name": "Epsilon Gruis",
          "astronomicalObjectType": "STAR_SYSTEM",
          "location": { "uid": "ASMA0000002015", "name": "Beta Quadrant" }
        },
        {
          "uid": "ASMA0000010394",
          "name": "Epsilon Hydra VII",
          "astronomicalObjectType": "PLANET",
          "location": { "uid": "ASMA0000025892", "name": "Alpha Quadrant" }
        },
        {
          "uid": "ASMA0000232909",
          "name": "Epsilon Hydrae",
          "astronomicalObjectType": "STAR",
          "location": { "uid": "ASMA0000264696", "name": "'etnap Nebula" }
        }
      ]
    }
  },
  "__N_SSG": true
}
