{
  "pageProps": {
    "serversideData": {
      "page": {
        "pageNumber": 68,
        "pageSize": 10,
        "numberOfElements": 10,
        "totalElements": 2404,
        "totalPages": 241,
        "firstPage": false,
        "lastPage": false
      },
      "sort": { "clauses": [] },
      "astronomicalObjects": [
        {
          "uid": "ASMA0000013113",
          "name": "Epsilon IV",
          "astronomicalObjectType": "PLANET",
          "location": { "uid": "ASMA0000232909", "name": "Epsilon Hydrae" }
        },
        {
          "uid": "ASMA0000012193",
          "name": "Epsilon IX sector",
          "astronomicalObjectType": "SECTOR",
          "location": null
        },
        {
          "uid": "ASMA0000243998",
          "name": "Epsilon Indi",
          "astronomicalObjectType": "STAR",
          "location": { "uid": "ASMA0000038851", "name": "Epsilon Indi system" }
        },
        {
          "uid": "ASMA0000050808",
          "name": "Epsilon Indi II",
          "astronomicalObjectType": "PLANET",
          "location": { "uid": "ASMA0000038851", "name": "Epsilon Indi system" }
        },
        {
          "uid": "ASMA0000263840",
          "name": "Epsilon Indi IV",
          "astronomicalObjectType": "PLANET",
          "location": { "uid": "ASMA0000038851", "name": "Epsilon Indi system" }
        },
        {
          "uid": "ASMA0000038851",
          "name": "Epsilon Indi system",
          "astronomicalObjectType": "STAR_SYSTEM",
          "location": { "uid": "ASMA0000025892", "name": "Alpha Quadrant" }
        },
        {
          "uid": "ASMA0000174474",
          "name": "Epsilon Legato",
          "astronomicalObjectType": "STAR",
          "location": { "uid": "ASMA0000002015", "name": "Beta Quadrant" }
        },
        {
          "uid": "ASMA0000288991",
          "name": "Epsilon Librae",
          "astronomicalObjectType": "STAR_SYSTEM",
          "location": { "uid": "ASMA0000025892", "name": "Alpha Quadrant" }
        },
        {
          "uid": "ASMA0000273856",
          "name": "Epsilon Monocerotis",
          "astronomicalObjectType": "STAR_SYSTEM",
          "location": { "uid": "ASMA0000002015", "name": "Beta Quadrant" }
        },
        {
          "uid": "ASMA0000037360",
          "name": "Epsilon Mynos system",
          "astronomicalObjectType": "STAR_SYSTEM",
          "location": { "uid": "ASMA0000025892", "name": "Alpha Quadrant" }
        }
      ]
    }
  },
  "__N_SSG": true
}
