{
  "pageProps": {
    "serversideData": {
      "page": {
        "pageNumber": 71,
        "pageSize": 10,
        "numberOfElements": 10,
        "totalElements": 2404,
        "totalPages": 241,
        "firstPage": false,
        "lastPage": false
      },
      "sort": { "clauses": [] },
      "astronomicalObjects": [
        {
          "uid": "ASMA0000012549",
          "name": "Excalbia",
          "astronomicalObjectType": "PLANET",
          "location": { "uid": "ASMA0000025892", "name": "Alpha Quadrant" }
        },
        {
          "uid": "ASMA0000007412",
          "name": "Exo III",
          "astronomicalObjectType": "PLANET",
          "location": { "uid": "ASMA0000025892", "name": "Alpha Quadrant" }
        },
        {
          "uid": "ASMA0000006176",
          "name": "Exosia",
          "astronomicalObjectType": "REGION",
          "location": { "uid": "ASMA0000000662", "name": "Delta Quadrant" }
        },
        {
          "uid": "ASMA0000045140",
          "name": "FGC-13",
          "astronomicalObjectType": "CLUSTER",
          "location": null
        },
        {
          "uid": "ASMA0000264590",
          "name": "FGC-347601",
          "astronomicalObjectType": "STAR_SYSTEM",
          "location": { "uid": "ASMA0000025892", "name": "Alpha Quadrant" }
        },
        {
          "uid": "ASMA0000043891",
          "name": "FGC-47",
          "astronomicalObjectType": "NEBULA",
          "location": null
        },
        {
          "uid": "ASMA0000011001",
          "name": "Fabrina",
          "astronomicalObjectType": "STAR",
          "location": { "uid": "ASMA0000025892", "name": "Alpha Quadrant" }
        },
        {
          "uid": "ASMA0000153946",
          "name": "Fabrina solar system",
          "astronomicalObjectType": "STAR_SYSTEM",
          "location": { "uid": "ASMA0000025892", "name": "Alpha Quadrant" }
        },
        {
          "uid": "ASMA0000211347",
          "name": "Fabrini homeworld",
          "astronomicalObjectType": "PLANET",
          "location": {
            "uid": "ASMA0000153946",
            "name": "Fabrina solar system"
          }
        },
        {
          "uid": "ASMA0000010535",
          "name": "Fahleena III",
          "astronomicalObjectType": "PLANET",
          "location": { "uid": "ASMA0000025892", "name": "Alpha Quadrant" }
        }
      ]
    }
  },
  "__N_SSG": true
}
