{
  "pageProps": {
    "serversideData": {
      "page": {
        "pageNumber": 74,
        "pageSize": 10,
        "numberOfElements": 10,
        "totalElements": 2404,
        "totalPages": 241,
        "firstPage": false,
        "lastPage": false
      },
      "sort": { "clauses": [] },
      "astronomicalObjects": [
        {
          "uid": "ASMA0000280969",
          "name": "Finibus III",
          "astronomicalObjectType": "M_CLASS_PLANET",
          "location": { "uid": "ASMA0000280989", "name": "Finibus system" }
        },
        {
          "uid": "ASMA0000281024",
          "name": "Finibus IV",
          "astronomicalObjectType": "PLANET",
          "location": { "uid": "ASMA0000280989", "name": "Finibus system" }
        },
        {
          "uid": "ASMA0000281027",
          "name": "Finibus V",
          "astronomicalObjectType": "PLANET",
          "location": { "uid": "ASMA0000280989", "name": "Finibus system" }
        },
        {
          "uid": "ASMA0000281028",
          "name": "Finibus VI",
          "astronomicalObjectType": "PLANET",
          "location": { "uid": "ASMA0000280989", "name": "Finibus system" }
        },
        {
          "uid": "ASMA0000280989",
          "name": "Finibus system",
          "astronomicalObjectType": "STAR_SYSTEM",
          "location": { "uid": "ASMA0000025892", "name": "Alpha Quadrant" }
        },
        {
          "uid": "ASMA0000177699",
          "name": "Finley",
          "astronomicalObjectType": "COMET",
          "location": { "uid": "ASMA0000020577", "name": "Earth" }
        },
        {
          "uid": "ASMA0000035325",
          "name": "Finnea Prime",
          "astronomicalObjectType": "PLANET",
          "location": { "uid": "ASMA0000025892", "name": "Alpha Quadrant" }
        },
        {
          "uid": "ASMA0000249359",
          "name": "Five systems",
          "astronomicalObjectType": "REGION",
          "location": null
        },
        {
          "uid": "ASMA0000010487",
          "name": "Fluidic space",
          "astronomicalObjectType": "REGION",
          "location": null
        },
        {
          "uid": "ASMA0000050132",
          "name": "Folnar III",
          "astronomicalObjectType": "PLANET",
          "location": { "uid": "ASMA0000025892", "name": "Alpha Quadrant" }
        }
      ]
    }
  },
  "__N_SSG": true
}
