{
  "pageProps": {
    "serversideData": {
      "page": {
        "pageNumber": 75,
        "pageSize": 10,
        "numberOfElements": 10,
        "totalElements": 2404,
        "totalPages": 241,
        "firstPage": false,
        "lastPage": false
      },
      "sort": { "clauses": [] },
      "astronomicalObjects": [
        {
          "uid": "ASMA0000280584",
          "name": "Forcas",
          "astronomicalObjectType": "STAR_SYSTEM",
          "location": { "uid": "ASMA0000002015", "name": "Beta Quadrant" }
        },
        {
          "uid": "ASMA0000007884",
          "name": "Forcas III",
          "astronomicalObjectType": "PLANET",
          "location": { "uid": "ASMA0000280584", "name": "Forcas" }
        },
        {
          "uid": "ASMA0000028193",
          "name": "Forlat III",
          "astronomicalObjectType": "PLANET",
          "location": { "uid": "ASMA0000025892", "name": "Alpha Quadrant" }
        },
        {
          "uid": "ASMA0000166379",
          "name": "Fornax",
          "astronomicalObjectType": "CONSTELLATION",
          "location": null
        },
        {
          "uid": "ASMA0000120344",
          "name": "Foster Nebula",
          "astronomicalObjectType": "NEBULA",
          "location": { "uid": "ASMA0000002015", "name": "Beta Quadrant" }
        },
        {
          "uid": "ASMA0000004515",
          "name": "Founders' homeworld",
          "astronomicalObjectType": "ROGUE_PLANET",
          "location": { "uid": "ASMA0000008403", "name": "Omarion Nebula" }
        },
        {
          "uid": "ASMA0000209561",
          "name": "Founders' homeworld",
          "astronomicalObjectType": "PLANET",
          "location": { "uid": "ASMA0000002016", "name": "Gamma Quadrant" }
        },
        {
          "uid": "ASMA0000262785",
          "name": "Founders' homeworld",
          "astronomicalObjectType": "PLANET",
          "location": { "uid": "ASMA0000002775", "name": "Milky Way Galaxy" }
        },
        {
          "uid": "ASMA0000058357",
          "name": "Fowla system",
          "astronomicalObjectType": "STAR_SYSTEM",
          "location": { "uid": "ASMA0000025892", "name": "Alpha Quadrant" }
        },
        {
          "uid": "ASMA0000120318",
          "name": "Frazee's Nova",
          "astronomicalObjectType": "STAR",
          "location": { "uid": "ASMA0000002015", "name": "Beta Quadrant" }
        }
      ]
    }
  },
  "__N_SSG": true
}
