{
  "pageProps": {
    "serversideData": {
      "page": {
        "pageNumber": 76,
        "pageSize": 10,
        "numberOfElements": 10,
        "totalElements": 2404,
        "totalPages": 241,
        "firstPage": false,
        "lastPage": false
      },
      "sort": { "clauses": [] },
      "astronomicalObjects": [
        {
          "uid": "ASMA0000009718",
          "name": "Free Haven",
          "astronomicalObjectType": "PLANET",
          "location": { "uid": "ASMA0000025892", "name": "Alpha Quadrant" }
        },
        {
          "uid": "ASMA0000251926",
          "name": "Freecloud",
          "astronomicalObjectType": "PLANET",
          "location": {
            "uid": "ASMA0000252658",
            "name": "Alpha Doradus system"
          }
        },
        {
          "uid": "ASMA0000120317",
          "name": "Friedlich Nebula",
          "astronomicalObjectType": "NEBULA",
          "location": { "uid": "ASMA0000002015", "name": "Beta Quadrant" }
        },
        {
          "uid": "ASMA0000271236",
          "name": "Frylon IV",
          "astronomicalObjectType": "PLANET",
          "location": { "uid": "ASMA0000271325", "name": "Frylon system" }
        },
        {
          "uid": "ASMA0000271325",
          "name": "Frylon system",
          "astronomicalObjectType": "STAR_SYSTEM",
          "location": { "uid": "ASMA0000025892", "name": "Alpha Quadrant" }
        },
        {
          "uid": "ASMA0000289048",
          "name": "Gacrux",
          "astronomicalObjectType": "STAR_SYSTEM",
          "location": { "uid": "ASMA0000002015", "name": "Beta Quadrant" }
        },
        {
          "uid": "ASMA0000015579",
          "name": "Gagarin IV",
          "astronomicalObjectType": "PLANET",
          "location": { "uid": "ASMA0000003647", "name": "Gamma 7 sector" }
        },
        {
          "uid": "ASMA0000016708",
          "name": "Gaia",
          "astronomicalObjectType": "PLANET",
          "location": { "uid": "ASMA0000002016", "name": "Gamma Quadrant" }
        },
        {
          "uid": "ASMA0000029458",
          "name": "Gaila's moon",
          "astronomicalObjectType": "MOON",
          "location": null
        },
        {
          "uid": "ASMA0000011858",
          "name": "Galactic Cluster 3",
          "astronomicalObjectType": "BORG_SPATIAL_DESIGNATION",
          "location": {
            "uid": "ASMA0000142472",
            "name": "Transmaterial energy plane"
          }
        }
      ]
    }
  },
  "__N_SSG": true
}
