{
  "pageProps": {
    "serversideData": {
      "page": {
        "pageNumber": 79,
        "pageSize": 10,
        "numberOfElements": 10,
        "totalElements": 2404,
        "totalPages": 241,
        "firstPage": false,
        "lastPage": false
      },
      "sort": { "clauses": [] },
      "astronomicalObjects": [
        {
          "uid": "ASMA0000061646",
          "name": "Gamelan system",
          "astronomicalObjectType": "STAR_SYSTEM",
          "location": { "uid": "ASMA0000025892", "name": "Alpha Quadrant" }
        },
        {
          "uid": "ASMA0000022701",
          "name": "Gamma 400 star system",
          "astronomicalObjectType": "STAR_SYSTEM",
          "location": { "uid": "ASMA0000189955", "name": "Sector 25712" }
        },
        {
          "uid": "ASMA0000003647",
          "name": "Gamma 7 sector",
          "astronomicalObjectType": "SECTOR",
          "location": null
        },
        {
          "uid": "ASMA0000025389",
          "name": "Gamma 7A system",
          "astronomicalObjectType": "STAR_SYSTEM",
          "location": { "uid": "ASMA0000009237", "name": "Sector 39J" }
        },
        {
          "uid": "ASMA0000165017",
          "name": "Gamma Argus II",
          "astronomicalObjectType": "PLANET",
          "location": { "uid": "ASMA0000165683", "name": "Gamma Argus system" }
        },
        {
          "uid": "ASMA0000165683",
          "name": "Gamma Argus system",
          "astronomicalObjectType": "STAR_SYSTEM",
          "location": { "uid": "ASMA0000025892", "name": "Alpha Quadrant" }
        },
        {
          "uid": "ASMA0000268137",
          "name": "Gamma Arigulon",
          "astronomicalObjectType": "STAR",
          "location": {
            "uid": "ASMA0000041571",
            "name": "Gamma Arigulon system"
          }
        },
        {
          "uid": "ASMA0000041571",
          "name": "Gamma Arigulon system",
          "astronomicalObjectType": "STAR_SYSTEM",
          "location": { "uid": "ASMA0000025892", "name": "Alpha Quadrant" }
        },
        {
          "uid": "ASMA0000066564",
          "name": "Gamma Canaris N",
          "astronomicalObjectType": "PLANETOID",
          "location": {
            "uid": "ASMA0000040777",
            "name": "Gamma Canaris region"
          }
        },
        {
          "uid": "ASMA0000040777",
          "name": "Gamma Canaris region",
          "astronomicalObjectType": "REGION",
          "location": { "uid": "ASMA0000025892", "name": "Alpha Quadrant" }
        }
      ]
    }
  },
  "__N_SSG": true
}
