{
  "pageProps": {
    "serversideData": {
      "page": {
        "pageNumber": 82,
        "pageSize": 10,
        "numberOfElements": 10,
        "totalElements": 2404,
        "totalPages": 241,
        "firstPage": false,
        "lastPage": false
      },
      "sort": { "clauses": [] },
      "astronomicalObjects": [
        {
          "uid": "ASMA0000024817",
          "name": "Gamma Trianguli sector",
          "astronomicalObjectType": "SECTOR",
          "location": { "uid": "ASMA0000025892", "name": "Alpha Quadrant" }
        },
        {
          "uid": "ASMA0000059592",
          "name": "Gamma Trianguli system",
          "astronomicalObjectType": "STAR_SYSTEM",
          "location": {
            "uid": "ASMA0000024817",
            "name": "Gamma Trianguli sector"
          }
        },
        {
          "uid": "ASMA0000287238",
          "name": "Gamma Tucanae",
          "astronomicalObjectType": "STAR_SYSTEM",
          "location": { "uid": "ASMA0000002015", "name": "Beta Quadrant" }
        },
        {
          "uid": "ASMA0000019994",
          "name": "Gamma Vertis IV",
          "astronomicalObjectType": "PLANET",
          "location": { "uid": "ASMA0000025892", "name": "Alpha Quadrant" }
        },
        {
          "uid": "ASMA0000009010",
          "name": "Gamma system",
          "astronomicalObjectType": "STAR_SYSTEM",
          "location": { "uid": "ASMA0000025892", "name": "Alpha Quadrant" }
        },
        {
          "uid": "ASMA0000018576",
          "name": "Gamma-601",
          "astronomicalObjectType": "ASTEROID",
          "location": { "uid": "ASMA0000006563", "name": "Devolin system" }
        },
        {
          "uid": "ASMA0000229734",
          "name": "Ganalda",
          "astronomicalObjectType": "STAR_SYSTEM",
          "location": { "uid": "ASMA0000002015", "name": "Beta Quadrant" }
        },
        {
          "uid": "ASMA0000023436",
          "name": "Ganalda IV",
          "astronomicalObjectType": "PLANET",
          "location": { "uid": "ASMA0000229734", "name": "Ganalda" }
        },
        {
          "uid": "ASMA0000012495",
          "name": "Gand sector",
          "astronomicalObjectType": "SECTOR",
          "location": { "uid": "ASMA0000000662", "name": "Delta Quadrant" }
        },
        {
          "uid": "ASMA0000007183",
          "name": "Ganymede",
          "astronomicalObjectType": "MOON",
          "location": { "uid": "ASMA0000003695", "name": "Jupiter" }
        }
      ]
    }
  },
  "__N_SSG": true
}
