{
  "pageProps": {
    "serversideData": {
      "page": {
        "pageNumber": 85,
        "pageSize": 10,
        "numberOfElements": 10,
        "totalElements": 2404,
        "totalPages": 241,
        "firstPage": false,
        "lastPage": false
      },
      "sort": { "clauses": [] },
      "astronomicalObjects": [
        {
          "uid": "ASMA0000003470",
          "name": "Genesis",
          "astronomicalObjectType": "PLANET",
          "location": { "uid": "ASMA0000099880", "name": "Genesis sector" }
        },
        {
          "uid": "ASMA0000099880",
          "name": "Genesis sector",
          "astronomicalObjectType": "SECTOR",
          "location": { "uid": "ASMA0000002015", "name": "Beta Quadrant" }
        },
        {
          "uid": "ASMA0000013445",
          "name": "Genovese's Star",
          "astronomicalObjectType": "STAR",
          "location": { "uid": "ASMA0000025892", "name": "Alpha Quadrant" }
        },
        {
          "uid": "ASMA0000274819",
          "name": "Geryon",
          "astronomicalObjectType": "M_CLASS_MOON",
          "location": { "uid": "ASMA0000274815", "name": "Theta Helios" }
        },
        {
          "uid": "ASMA0000148387",
          "name": "Gezid",
          "astronomicalObjectType": "CONSTELLATION",
          "location": null
        },
        {
          "uid": "ASMA0000024602",
          "name": "Ghorusda",
          "astronomicalObjectType": "PLANET",
          "location": { "uid": "ASMA0000025892", "name": "Alpha Quadrant" }
        },
        {
          "uid": "ASMA0000253300",
          "name": "Ghulion system",
          "astronomicalObjectType": "STAR_SYSTEM",
          "location": { "uid": "ASMA0000025892", "name": "Alpha Quadrant" }
        },
        {
          "uid": "ASMA0000020044",
          "name": "Gideon",
          "astronomicalObjectType": "PLANET",
          "location": { "uid": "ASMA0000287985", "name": "Gideon system" }
        },
        {
          "uid": "ASMA0000287985",
          "name": "Gideon system",
          "astronomicalObjectType": "STAR_SYSTEM",
          "location": { "uid": "ASMA0000025892", "name": "Alpha Quadrant" }
        },
        {
          "uid": "ASMA0000018719",
          "name": "Glessene sector",
          "astronomicalObjectType": "SECTOR",
          "location": null
        }
      ]
    }
  },
  "__N_SSG": true
}
