{
  "pageProps": {
    "serversideData": {
      "page": {
        "pageNumber": 87,
        "pageSize": 10,
        "numberOfElements": 10,
        "totalElements": 2404,
        "totalPages": 241,
        "firstPage": false,
        "lastPage": false
      },
      "sort": { "clauses": [] },
      "astronomicalObjects": [
        {
          "uid": "ASMA0000091533",
          "name": "Gosis' species homeworld",
          "astronomicalObjectType": "PLANET",
          "location": null
        },
        {
          "uid": "ASMA0000008709",
          "name": "Gothos",
          "astronomicalObjectType": "PLANET",
          "location": { "uid": "ASMA0000045354", "name": "Star desert" }
        },
        {
          "uid": "ASMA0000243287",
          "name": "Gr'oth",
          "astronomicalObjectType": "STAR_SYSTEM",
          "location": { "uid": "ASMA0000002015", "name": "Beta Quadrant" }
        },
        {
          "uid": "ASMA0000018747",
          "name": "Gravesworld",
          "astronomicalObjectType": "PLANET",
          "location": { "uid": "ASMA0000025892", "name": "Alpha Quadrant" }
        },
        {
          "uid": "ASMA0000068387",
          "name": "Grazer",
          "astronomicalObjectType": "PLANET",
          "location": { "uid": "ASMA0000025892", "name": "Alpha Quadrant" }
        },
        {
          "uid": "ASMA0000280298",
          "name": "Grazer system",
          "astronomicalObjectType": "STAR_SYSTEM",
          "location": { "uid": "ASMA0000025892", "name": "Alpha Quadrant" }
        },
        {
          "uid": "ASMA0000011603",
          "name": "Great Barrier",
          "astronomicalObjectType": "REGION",
          "location": { "uid": "ASMA0000002775", "name": "Milky Way Galaxy" }
        },
        {
          "uid": "ASMA0000152944",
          "name": "Great Erg",
          "astronomicalObjectType": "REGION",
          "location": null
        },
        {
          "uid": "ASMA0000196417",
          "name": "Great Horn",
          "astronomicalObjectType": "CONSTELLATION",
          "location": null
        },
        {
          "uid": "ASMA0000011710",
          "name": "Grenna system",
          "astronomicalObjectType": "STAR_SYSTEM",
          "location": { "uid": "ASMA0000000662", "name": "Delta Quadrant" }
        }
      ]
    }
  },
  "__N_SSG": true
}
