{
  "pageProps": {
    "serversideData": {
      "page": {
        "pageNumber": 88,
        "pageSize": 10,
        "numberOfElements": 10,
        "totalElements": 2404,
        "totalPages": 241,
        "firstPage": false,
        "lastPage": false
      },
      "sort": { "clauses": [] },
      "astronomicalObjects": [
        {
          "uid": "ASMA0000196211",
          "name": "Grewler sector",
          "astronomicalObjectType": "SECTOR",
          "location": { "uid": "ASMA0000002775", "name": "Milky Way Galaxy" }
        },
        {
          "uid": "ASMA0000011865",
          "name": "Grid 005",
          "astronomicalObjectType": "BORG_SPATIAL_DESIGNATION",
          "location": { "uid": "ASMA0000000662", "name": "Delta Quadrant" }
        },
        {
          "uid": "ASMA0000263240",
          "name": "Grid 07, Quad 09, block 3, sector 1",
          "astronomicalObjectType": "REGION",
          "location": null
        },
        {
          "uid": "ASMA0000178570",
          "name": "Grid 09",
          "astronomicalObjectType": "REGION",
          "location": { "uid": "ASMA0000178569", "name": "Sector 70" }
        },
        {
          "uid": "ASMA0000042310",
          "name": "Grid 091",
          "astronomicalObjectType": "BORG_SPATIAL_DESIGNATION",
          "location": { "uid": "ASMA0000000662", "name": "Delta Quadrant" }
        },
        {
          "uid": "ASMA0000145479",
          "name": "Grid 11",
          "astronomicalObjectType": "REGION",
          "location": { "uid": "ASMA0000000662", "name": "Delta Quadrant" }
        },
        {
          "uid": "ASMA0000042314",
          "name": "Grid 124, Octant 22-theta",
          "astronomicalObjectType": "BORG_SPATIAL_DESIGNATION",
          "location": { "uid": "ASMA0000000662", "name": "Delta Quadrant" }
        },
        {
          "uid": "ASMA0000080909",
          "name": "Grid 1421",
          "astronomicalObjectType": "BORG_SPATIAL_DESIGNATION",
          "location": { "uid": "ASMA0000000662", "name": "Delta Quadrant" }
        },
        {
          "uid": "ASMA0000042308",
          "name": "Grid 182",
          "astronomicalObjectType": "BORG_SPATIAL_DESIGNATION",
          "location": { "uid": "ASMA0000000662", "name": "Delta Quadrant" }
        },
        {
          "uid": "ASMA0000081769",
          "name": "Grid 216",
          "astronomicalObjectType": "BORG_SPATIAL_DESIGNATION",
          "location": { "uid": "ASMA0000000662", "name": "Delta Quadrant" }
        }
      ]
    }
  },
  "__N_SSG": true
}
