{
  "pageProps": {
    "serversideData": {
      "page": {
        "pageNumber": 8,
        "pageSize": 10,
        "numberOfElements": 10,
        "totalElements": 2404,
        "totalPages": 241,
        "firstPage": false,
        "lastPage": false
      },
      "sort": { "clauses": [] },
      "astronomicalObjects": [
        {
          "uid": "ASMA0000007432",
          "name": "Alpha Eridani II",
          "astronomicalObjectType": "PLANET",
          "location": { "uid": "ASMA0000025892", "name": "Alpha Quadrant" }
        },
        {
          "uid": "ASMA0000166252",
          "name": "Alpha Fernandes III",
          "astronomicalObjectType": "PLANET",
          "location": null
        },
        {
          "uid": "ASMA0000280199",
          "name": "Alpha I",
          "astronomicalObjectType": "PLANET",
          "location": { "uid": "ASMA0000025892", "name": "Alpha Quadrant" }
        },
        {
          "uid": "ASMA0000012066",
          "name": "Alpha III",
          "astronomicalObjectType": "PLANET",
          "location": { "uid": "ASMA0000025892", "name": "Alpha Quadrant" }
        },
        {
          "uid": "ASMA0000012179",
          "name": "Alpha Laputa IV",
          "astronomicalObjectType": "PLANET",
          "location": { "uid": "ASMA0000025892", "name": "Alpha Quadrant" }
        },
        {
          "uid": "ASMA0000007854",
          "name": "Alpha Leonis system",
          "astronomicalObjectType": "STAR_SYSTEM",
          "location": { "uid": "ASMA0000002015", "name": "Beta Quadrant" }
        },
        {
          "uid": "ASMA0000245015",
          "name": "Alpha Lupi",
          "astronomicalObjectType": "STAR",
          "location": null
        },
        {
          "uid": "ASMA0000012186",
          "name": "Alpha Majoris I",
          "astronomicalObjectType": "PLANET",
          "location": { "uid": "ASMA0000025892", "name": "Alpha Quadrant" }
        },
        {
          "uid": "ASMA0000010992",
          "name": "Alpha Majoris system",
          "astronomicalObjectType": "STAR_SYSTEM",
          "location": { "uid": "ASMA0000025892", "name": "Alpha Quadrant" }
        },
        {
          "uid": "ASMA0000189772",
          "name": "Alpha Moab",
          "astronomicalObjectType": "STAR",
          "location": { "uid": "ASMA0000045032", "name": "Moab system" }
        }
      ]
    }
  },
  "__N_SSG": true
}
