{
  "pageProps": {
    "serversideData": {
      "page": {
        "pageNumber": 89,
        "pageSize": 10,
        "numberOfElements": 10,
        "totalElements": 2404,
        "totalPages": 241,
        "firstPage": false,
        "lastPage": false
      },
      "sort": { "clauses": [] },
      "astronomicalObjects": [
        {
          "uid": "ASMA0000011866",
          "name": "Grid 2369",
          "astronomicalObjectType": "BORG_SPATIAL_DESIGNATION",
          "location": { "uid": "ASMA0000000662", "name": "Delta Quadrant" }
        },
        {
          "uid": "ASMA0000082610",
          "name": "Grid 295",
          "astronomicalObjectType": "BORG_SPATIAL_DESIGNATION",
          "location": { "uid": "ASMA0000000662", "name": "Delta Quadrant" }
        },
        {
          "uid": "ASMA0000157298",
          "name": "Grid 310",
          "astronomicalObjectType": "BORG_SPATIAL_DESIGNATION",
          "location": { "uid": "ASMA0000000662", "name": "Delta Quadrant" }
        },
        {
          "uid": "ASMA0000080907",
          "name": "Grid 315",
          "astronomicalObjectType": "BORG_SPATIAL_DESIGNATION",
          "location": { "uid": "ASMA0000000662", "name": "Delta Quadrant" }
        },
        {
          "uid": "ASMA0000011824",
          "name": "Grid 325",
          "astronomicalObjectType": "BORG_SPATIAL_DESIGNATION",
          "location": { "uid": "ASMA0000000719", "name": "Sector 001" }
        },
        {
          "uid": "ASMA0000042305",
          "name": "Grid 326",
          "astronomicalObjectType": "BORG_SPATIAL_DESIGNATION",
          "location": { "uid": "ASMA0000000662", "name": "Delta Quadrant" }
        },
        {
          "uid": "ASMA0000119760",
          "name": "Grid 362",
          "astronomicalObjectType": "BORG_SPATIAL_DESIGNATION",
          "location": { "uid": "ASMA0000000662", "name": "Delta Quadrant" }
        },
        {
          "uid": "ASMA0000075063",
          "name": "Grid 532",
          "astronomicalObjectType": "BORG_SPATIAL_DESIGNATION",
          "location": null
        },
        {
          "uid": "ASMA0000050030",
          "name": "Grid 539",
          "astronomicalObjectType": "BORG_SPATIAL_DESIGNATION",
          "location": { "uid": "ASMA0000000662", "name": "Delta Quadrant" }
        },
        {
          "uid": "ASMA0000159566",
          "name": "Grid 641",
          "astronomicalObjectType": "BORG_SPATIAL_DESIGNATION",
          "location": { "uid": "ASMA0000000662", "name": "Delta Quadrant" }
        }
      ]
    }
  },
  "__N_SSG": true
}
