{
  "pageProps": {
    "serversideData": {
      "page": {
        "pageNumber": 90,
        "pageSize": 10,
        "numberOfElements": 10,
        "totalElements": 2404,
        "totalPages": 241,
        "firstPage": false,
        "lastPage": false
      },
      "sort": { "clauses": [] },
      "astronomicalObjects": [
        {
          "uid": "ASMA0000011868",
          "name": "Grid 649",
          "astronomicalObjectType": "BORG_SPATIAL_DESIGNATION",
          "location": { "uid": "ASMA0000000662", "name": "Delta Quadrant" }
        },
        {
          "uid": "ASMA0000080915",
          "name": "Grid 6920",
          "astronomicalObjectType": "BORG_SPATIAL_DESIGNATION",
          "location": { "uid": "ASMA0000012495", "name": "Gand sector" }
        },
        {
          "uid": "ASMA0000232348",
          "name": "Grid 8",
          "astronomicalObjectType": "REGION",
          "location": { "uid": "ASMA0000162563", "name": "Sector 39542" }
        },
        {
          "uid": "ASMA0000081654",
          "name": "Grid 867",
          "astronomicalObjectType": "BORG_SPATIAL_DESIGNATION",
          "location": { "uid": "ASMA0000000662", "name": "Delta Quadrant" }
        },
        {
          "uid": "ASMA0000058563",
          "name": "Grid 892",
          "astronomicalObjectType": "BORG_SPATIAL_DESIGNATION",
          "location": { "uid": "ASMA0000000662", "name": "Delta Quadrant" }
        },
        {
          "uid": "ASMA0000086469",
          "name": "Grid 898",
          "astronomicalObjectType": "BORG_SPATIAL_DESIGNATION",
          "location": { "uid": "ASMA0000000662", "name": "Delta Quadrant" }
        },
        {
          "uid": "ASMA0000232250",
          "name": "Grid 9",
          "astronomicalObjectType": "REGION",
          "location": { "uid": "ASMA0000013078", "name": "Sector 41751" }
        },
        {
          "uid": "ASMA0000082607",
          "name": "Grid 936",
          "astronomicalObjectType": "BORG_SPATIAL_DESIGNATION",
          "location": { "uid": "ASMA0000000662", "name": "Delta Quadrant" }
        },
        {
          "uid": "ASMA0000042309",
          "name": "Grid 94",
          "astronomicalObjectType": "BORG_SPATIAL_DESIGNATION",
          "location": { "uid": "ASMA0000000662", "name": "Delta Quadrant" }
        },
        {
          "uid": "ASMA0000042307",
          "name": "Grid 96",
          "astronomicalObjectType": "BORG_SPATIAL_DESIGNATION",
          "location": { "uid": "ASMA0000000662", "name": "Delta Quadrant" }
        }
      ]
    }
  },
  "__N_SSG": true
}
