{
  "pageProps": {
    "serversideData": {
      "page": {
        "pageNumber": 92,
        "pageSize": 10,
        "numberOfElements": 10,
        "totalElements": 2404,
        "totalPages": 241,
        "firstPage": false,
        "lastPage": false
      },
      "sort": { "clauses": [] },
      "astronomicalObjects": [
        {
          "uid": "ASMA0000289050",
          "name": "Haakona",
          "astronomicalObjectType": "STAR_SYSTEM",
          "location": { "uid": "ASMA0000002015", "name": "Beta Quadrant" }
        },
        {
          "uid": "ASMA0000008421",
          "name": "Hakton VII",
          "astronomicalObjectType": "PLANET",
          "location": { "uid": "ASMA0000025892", "name": "Alpha Quadrant" }
        },
        {
          "uid": "ASMA0000229721",
          "name": "Halee system",
          "astronomicalObjectType": "STAR_SYSTEM",
          "location": { "uid": "ASMA0000002015", "name": "Beta Quadrant" }
        },
        {
          "uid": "ASMA0000262943",
          "name": "Halka",
          "astronomicalObjectType": "STAR_SYSTEM",
          "location": { "uid": "ASMA0000025892", "name": "Alpha Quadrant" }
        },
        {
          "uid": "ASMA0000052819",
          "name": "Halkan homeworld",
          "astronomicalObjectType": "PLANET",
          "location": { "uid": "ASMA0000025892", "name": "Alpha Quadrant" }
        },
        {
          "uid": "ASMA0000045438",
          "name": "Halley's Comet",
          "astronomicalObjectType": "COMET",
          "location": { "uid": "ASMA0000000243", "name": "Sol system" }
        },
        {
          "uid": "ASMA0000010123",
          "name": "Hanoli system",
          "astronomicalObjectType": "STAR_SYSTEM",
          "location": null
        },
        {
          "uid": "ASMA0000068827",
          "name": "Hanolin asteroid belt",
          "astronomicalObjectType": "ASTEROID_BELT",
          "location": null
        },
        {
          "uid": "ASMA0000008607",
          "name": "Hanon IV",
          "astronomicalObjectType": "M_CLASS_PLANET",
          "location": { "uid": "ASMA0000059541", "name": "Hanon system" }
        },
        {
          "uid": "ASMA0000059541",
          "name": "Hanon system",
          "astronomicalObjectType": "STAR_SYSTEM",
          "location": { "uid": "ASMA0000008552", "name": "Tenarus Cluster" }
        }
      ]
    }
  },
  "__N_SSG": true
}
