{
  "pageProps": {
    "serversideData": {
      "page": {
        "pageNumber": 96,
        "pageSize": 10,
        "numberOfElements": 10,
        "totalElements": 2404,
        "totalPages": 241,
        "firstPage": false,
        "lastPage": false
      },
      "sort": { "clauses": [] },
      "astronomicalObjects": [
        {
          "uid": "ASMA0000025346",
          "name": "Hole in space",
          "astronomicalObjectType": "REGION",
          "location": { "uid": "ASMA0000012207", "name": "Morgana Quadrant" }
        },
        {
          "uid": "ASMA0000047443",
          "name": "Holna IV",
          "astronomicalObjectType": "PLANET",
          "location": { "uid": "ASMA0000025892", "name": "Alpha Quadrant" }
        },
        {
          "uid": "ASMA0000080853",
          "name": "Horsehead Nebula",
          "astronomicalObjectType": "NEBULA",
          "location": null
        },
        {
          "uid": "ASMA0000010625",
          "name": "Horvian Cluster",
          "astronomicalObjectType": "CLUSTER",
          "location": null
        },
        {
          "uid": "ASMA0000008544",
          "name": "Hromi Cluster",
          "astronomicalObjectType": "CLUSTER",
          "location": { "uid": "ASMA0000002015", "name": "Beta Quadrant" }
        },
        {
          "uid": "ASMA0000049884",
          "name": "Hugora Nebula",
          "astronomicalObjectType": "NEBULA",
          "location": { "uid": "ASMA0000025892", "name": "Alpha Quadrant" }
        },
        {
          "uid": "ASMA0000262906",
          "name": "Hunhau",
          "astronomicalObjectType": "M_CLASS_PLANET",
          "location": { "uid": "ASMA0000002775", "name": "Milky Way Galaxy" }
        },
        {
          "uid": "ASMA0000266775",
          "name": "Hunters' homeworld",
          "astronomicalObjectType": "PLANET",
          "location": { "uid": "ASMA0000002016", "name": "Gamma Quadrant" }
        },
        {
          "uid": "ASMA0000264546",
          "name": "Hupyria",
          "astronomicalObjectType": "STAR_SYSTEM",
          "location": { "uid": "ASMA0000025892", "name": "Alpha Quadrant" }
        },
        {
          "uid": "ASMA0000010553",
          "name": "Hurada III",
          "astronomicalObjectType": "PLANET",
          "location": { "uid": "ASMA0000025892", "name": "Alpha Quadrant" }
        }
      ]
    }
  },
  "__N_SSG": true
}
