{
  "pageProps": {
    "serversideData": {
      "page": {
        "pageNumber": 97,
        "pageSize": 10,
        "numberOfElements": 10,
        "totalElements": 2404,
        "totalPages": 241,
        "firstPage": false,
        "lastPage": false
      },
      "sort": { "clauses": [] },
      "astronomicalObjects": [
        {
          "uid": "ASMA0000028828",
          "name": "Hurkos III",
          "astronomicalObjectType": "PLANET",
          "location": { "uid": "ASMA0000174496", "name": "Cygnus Sector" }
        },
        {
          "uid": "ASMA0000252672",
          "name": "Hypatia system",
          "astronomicalObjectType": "STAR_SYSTEM",
          "location": null
        },
        {
          "uid": "ASMA0000229656",
          "name": "Hyralan",
          "astronomicalObjectType": "STAR_SYSTEM",
          "location": { "uid": "ASMA0000002015", "name": "Beta Quadrant" }
        },
        {
          "uid": "ASMA0000049533",
          "name": "Hyralan sector",
          "astronomicalObjectType": "SECTOR",
          "location": { "uid": "ASMA0000002015", "name": "Beta Quadrant" }
        },
        {
          "uid": "ASMA0000272056",
          "name": "Hysperia",
          "astronomicalObjectType": "PLANET",
          "location": { "uid": "ASMA0000025892", "name": "Alpha Quadrant" }
        },
        {
          "uid": "ASMA0000027513",
          "name": "Icarus IV",
          "astronomicalObjectType": "COMET",
          "location": { "uid": "ASMA0000002015", "name": "Beta Quadrant" }
        },
        {
          "uid": "ASMA0000229671",
          "name": "Iccobar",
          "astronomicalObjectType": "STAR_SYSTEM",
          "location": { "uid": "ASMA0000002015", "name": "Beta Quadrant" }
        },
        {
          "uid": "ASMA0000229660",
          "name": "Iconia",
          "astronomicalObjectType": "PLANET",
          "location": { "uid": "ASMA0000268117", "name": "Iconia system" }
        },
        {
          "uid": "ASMA0000268117",
          "name": "Iconia system",
          "astronomicalObjectType": "STAR_SYSTEM",
          "location": {
            "uid": "ASMA0000006083",
            "name": "Romulan Neutral Zone"
          }
        },
        {
          "uid": "ASMA0000012749",
          "name": "Icor IX",
          "astronomicalObjectType": "PLANET",
          "location": { "uid": "ASMA0000025892", "name": "Alpha Quadrant" }
        }
      ]
    }
  },
  "__N_SSG": true
}
