{
  "pageProps": {
    "serversideData": {
      "page": {
        "pageNumber": 98,
        "pageSize": 10,
        "numberOfElements": 10,
        "totalElements": 2404,
        "totalPages": 241,
        "firstPage": false,
        "lastPage": false
      },
      "sort": { "clauses": [] },
      "astronomicalObjects": [
        {
          "uid": "ASMA0000008547",
          "name": "Idini Star Cluster",
          "astronomicalObjectType": "CLUSTER",
          "location": null
        },
        {
          "uid": "ASMA0000045003",
          "name": "Idran",
          "astronomicalObjectType": "STAR",
          "location": { "uid": "ASMA0000004078", "name": "Idran system" }
        },
        {
          "uid": "ASMA0000166064",
          "name": "Idran Star Cluster",
          "astronomicalObjectType": "CLUSTER",
          "location": null
        },
        {
          "uid": "ASMA0000004078",
          "name": "Idran system",
          "astronomicalObjectType": "STAR_SYSTEM",
          "location": { "uid": "ASMA0000011702", "name": "Galactic core" }
        },
        {
          "uid": "ASMA0000045133",
          "name": "Igo sector",
          "astronomicalObjectType": "SECTOR",
          "location": null
        },
        {
          "uid": "ASMA0000229756",
          "name": "Ikalia",
          "astronomicalObjectType": "STAR_SYSTEM",
          "location": { "uid": "ASMA0000002015", "name": "Beta Quadrant" }
        },
        {
          "uid": "ASMA0000026831",
          "name": "Ikalian asteroid belt",
          "astronomicalObjectType": "ASTEROID_BELT",
          "location": { "uid": "ASMA0000054086", "name": "Kriosian system" }
        },
        {
          "uid": "ASMA0000009399",
          "name": "Ilari",
          "astronomicalObjectType": "PLANET",
          "location": { "uid": "ASMA0000000662", "name": "Delta Quadrant" }
        },
        {
          "uid": "ASMA0000029475",
          "name": "Ilecom system",
          "astronomicalObjectType": "STAR_SYSTEM",
          "location": null
        },
        {
          "uid": "ASMA0000012511",
          "name": "Ilidaria",
          "astronomicalObjectType": "PLANET",
          "location": { "uid": "ASMA0000190118", "name": "Ilidaria system" }
        }
      ]
    }
  },
  "__N_SSG": true
}
